127.0.0.1 - - [06/Jun/2017:16:17:56 +0800] "GET / HTTP/1.1" 200 107062
127.0.0.1 - - [06/Jun/2017:19:15:40 +0800] "GET / HTTP/1.1" 200 107062
0:0:0:0:0:0:0:1 - - [06/Jun/2017:19:37:40 +0800] "GET / HTTP/1.1" 200 107062
0:0:0:0:0:0:0:1 - - [06/Jun/2017:19:37:40 +0800] "GET /js/jquery-1.6.4.js HTTP/1.1" 304 -
0:0:0:0:0:0:0:1 - - [06/Jun/2017:19:37:40 +0800] "GET /js/base-v1.js HTTP/1.1" 304 -
0:0:0:0:0:0:0:1 - - [06/Jun/2017:19:37:40 +0800] "GET /css/babasport.css HTTP/1.1" 304 -
0:0:0:0:0:0:0:1 - - [06/Jun/2017:19:37:41 +0800] "GET /js/jquery-extend.js HTTP/1.1" 304 -
0:0:0:0:0:0:0:1 - - [06/Jun/2017:19:37:41 +0800] "GET /js/lib-v1.js HTTP/1.1" 304 -
0:0:0:0:0:0:0:1 - - [06/Jun/2017:19:37:41 +0800] "GET /js/home.js HTTP/1.1" 304 -
0:0:0:0:0:0:0:1 - - [06/Jun/2017:19:37:41 +0800] "GET /js/babasport.js HTTP/1.1" 304 -
0:0:0:0:0:0:0:1 - - [06/Jun/2017:19:37:41 +0800] "GET /images/XBB2.png HTTP/1.1" 304 -
0:0:0:0:0:0:0:1 - - [06/Jun/2017:19:37:41 +0800] "GET /images/loading-jd.gif HTTP/1.1" 304 -
0:0:0:0:0:0:0:1 - - [06/Jun/2017:19:37:41 +0800] "GET /images/virtuals-20140606.png HTTP/1.1" 304 -
0:0:0:0:0:0:0:1 - - [06/Jun/2017:19:37:41 +0800] "GET /images/20130330C.png HTTP/1.1" 304 -
0:0:0:0:0:0:0:1 - - [06/Jun/2017:19:37:41 +0800] "GET /images/20130725.png HTTP/1.1" 304 -
0:0:0:0:0:0:0:1 - - [06/Jun/2017:19:37:41 +0800] "GET /images/20130330A_2.png HTTP/1.1" 304 -
0:0:0:0:0:0:0:1 - - [06/Jun/2017:19:37:42 +0800] "GET /images/20130330B_1.png HTTP/1.1" 304 -
0:0:0:0:0:0:0:1 - - [06/Jun/2017:19:37:42 +0800] "GET /images/543b4d75N686689d7.jpg HTTP/1.1" 304 -
0:0:0:0:0:0:0:1 - - [06/Jun/2017:19:37:42 +0800] "POST /isLogin.aspx?callback=jQuery5826495 HTTP/1.1" 404 975
0:0:0:0:0:0:0:1 - - [06/Jun/2017:19:37:42 +0800] "GET /images/17.png HTTP/1.1" 304 -
0:0:0:0:0:0:0:1 - - [06/Jun/2017:19:37:43 +0800] "GET /favicon.ico HTTP/1.1" 404 973
0:0:0:0:0:0:0:1 - - [06/Jun/2017:19:38:37 +0800] "GET / HTTP/1.1" 200 107062
0:0:0:0:0:0:0:1 - - [06/Jun/2017:19:38:37 +0800] "POST /isLogin.aspx?callback=jQuery3754301 HTTP/1.1" 404 975
0:0:0:0:0:0:0:1 - - [06/Jun/2017:19:38:38 +0800] "GET / HTTP/1.1" 200 107062
0:0:0:0:0:0:0:1 - - [06/Jun/2017:19:38:38 +0800] "POST /isLogin.aspx?callback=jQuery8412560 HTTP/1.1" 404 975
0:0:0:0:0:0:0:1 - - [06/Jun/2017:19:38:39 +0800] "GET / HTTP/1.1" 200 107062
0:0:0:0:0:0:0:1 - - [06/Jun/2017:19:38:39 +0800] "POST /isLogin.aspx?callback=jQuery7970816 HTTP/1.1" 404 975
0:0:0:0:0:0:0:1 - - [06/Jun/2017:19:38:39 +0800] "GET / HTTP/1.1" 200 107062
0:0:0:0:0:0:0:1 - - [06/Jun/2017:19:38:40 +0800] "POST /isLogin.aspx?callback=jQuery1680886 HTTP/1.1" 404 975
0:0:0:0:0:0:0:1 - - [06/Jun/2017:19:38:40 +0800] "GET / HTTP/1.1" 200 107062
0:0:0:0:0:0:0:1 - - [06/Jun/2017:19:38:40 +0800] "POST /isLogin.aspx?callback=jQuery803232 HTTP/1.1" 404 975
0:0:0:0:0:0:0:1 - - [06/Jun/2017:19:38:40 +0800] "GET / HTTP/1.1" 200 107062
0:0:0:0:0:0:0:1 - - [06/Jun/2017:19:38:41 +0800] "POST /isLogin.aspx?callback=jQuery5425557 HTTP/1.1" 404 975
0:0:0:0:0:0:0:1 - - [06/Jun/2017:19:40:39 +0800] "GET / HTTP/1.1" 200 107062
0:0:0:0:0:0:0:1 - - [06/Jun/2017:19:40:39 +0800] "POST /isLogin.aspx?callback=jQuery7194016 HTTP/1.1" 404 975
0:0:0:0:0:0:0:1 - - [06/Jun/2017:19:41:11 +0800] "GET /portal/search?keyword=2016 HTTP/1.1" 200 60038
0:0:0:0:0:0:0:1 - - [06/Jun/2017:19:41:11 +0800] "GET /css/base.css HTTP/1.1" 304 -
0:0:0:0:0:0:0:1 - - [06/Jun/2017:19:41:11 +0800] "GET /css/search.css HTTP/1.1" 304 -
0:0:0:0:0:0:0:1 - - [06/Jun/2017:19:41:11 +0800] "GET /images/t/t9/e1.jpg HTTP/1.1" 304 -
0:0:0:0:0:0:0:1 - - [06/Jun/2017:19:41:12 +0800] "GET /images/t/t6/e1.jpg HTTP/1.1" 304 -
0:0:0:0:0:0:0:1 - - [06/Jun/2017:19:41:12 +0800] "GET /images/t/t8/e1.jpg HTTP/1.1" 304 -
0:0:0:0:0:0:0:1 - - [06/Jun/2017:19:41:12 +0800] "GET /images/t/t7/e1.jpg HTTP/1.1" 304 -
0:0:0:0:0:0:0:1 - - [06/Jun/2017:19:41:12 +0800] "GET /images/t/t2/e1.jpg HTTP/1.1" 304 -
0:0:0:0:0:0:0:1 - - [06/Jun/2017:19:41:12 +0800] "GET /images/t/t1/e1.jpg HTTP/1.1" 304 -
0:0:0:0:0:0:0:1 - - [06/Jun/2017:19:41:12 +0800] "GET /images/t/t4/e1.jpg HTTP/1.1" 304 -
0:0:0:0:0:0:0:1 - - [06/Jun/2017:19:41:12 +0800] "GET /images/ad3.jpg HTTP/1.1" 304 -
0:0:0:0:0:0:0:1 - - [06/Jun/2017:19:41:12 +0800] "GET /images/ad2.jpg HTTP/1.1" 304 -
0:0:0:0:0:0:0:1 - - [06/Jun/2017:19:41:12 +0800] "GET /images/i/search.icons.png HTTP/1.1" 304 -
0:0:0:0:0:0:0:1 - - [06/Jun/2017:19:41:12 +0800] "GET /images/ad1.jpg HTTP/1.1" 304 -
0:0:0:0:0:0:0:1 - - [06/Jun/2017:19:41:12 +0800] "GET /images/ad4.jpg HTTP/1.1" 304 -
0:0:0:0:0:0:0:1 - - [06/Jun/2017:19:41:12 +0800] "GET /images/55237eb5Ndf2c9fcf(1).jpg HTTP/1.1" 304 -
0:0:0:0:0:0:0:1 - - [06/Jun/2017:19:41:13 +0800] "POST /isLogin.aspx?callback=jQuery2383301 HTTP/1.1" 404 975
0:0:0:0:0:0:0:1 - - [06/Jun/2017:19:41:57 +0800] "GET /portal/search?keyword=2016&brandId=2 HTTP/1.1" 200 50748
0:0:0:0:0:0:0:1 - - [06/Jun/2017:19:41:57 +0800] "GET /images/i/search.ele.png HTTP/1.1" 200 1159
0:0:0:0:0:0:0:1 - - [06/Jun/2017:19:41:57 +0800] "POST /isLogin.aspx?callback=jQuery1951014 HTTP/1.1" 404 975
0:0:0:0:0:0:0:1 - - [06/Jun/2017:19:42:54 +0800] "GET /css/a.css HTTP/1.1" 304 -
0:0:0:0:0:0:0:1 - - [06/Jun/2017:19:42:54 +0800] "GET /css/pshow.css HTTP/1.1" 304 -
0:0:0:0:0:0:0:1 - - [06/Jun/2017:19:42:54 +0800] "GET /product/detail?id=373 HTTP/1.1" 200 44153
0:0:0:0:0:0:0:1 - - [06/Jun/2017:19:42:54 +0800] "GET /images/53f44cc2N0b714cb2_002.jpg HTTP/1.1" 304 -
0:0:0:0:0:0:0:1 - - [06/Jun/2017:19:42:54 +0800] "GET /images/t/t4/e5.jpg HTTP/1.1" 404 987
0:0:0:0:0:0:0:1 - - [06/Jun/2017:19:42:55 +0800] "GET /images/t/t4/e2.jpg HTTP/1.1" 200 170891
0:0:0:0:0:0:0:1 - - [06/Jun/2017:19:42:55 +0800] "GET /js/product.js HTTP/1.1" 304 -
0:0:0:0:0:0:0:1 - - [06/Jun/2017:19:42:55 +0800] "GET /images/d/p15.jpg HTTP/1.1" 304 -
0:0:0:0:0:0:0:1 - - [06/Jun/2017:19:42:55 +0800] "GET /js/iplocation_server.js HTTP/1.1" 304 -
0:0:0:0:0:0:0:1 - - [06/Jun/2017:19:42:55 +0800] "GET /images/t/t4/e4.jpg HTTP/1.1" 200 124581
0:0:0:0:0:0:0:1 - - [06/Jun/2017:19:42:55 +0800] "GET /images/d/p14.jpg HTTP/1.1" 304 -
0:0:0:0:0:0:0:1 - - [06/Jun/2017:19:42:55 +0800] "GET /images/t/t4/e3.jpg HTTP/1.1" 200 147667
0:0:0:0:0:0:0:1 - - [06/Jun/2017:19:42:55 +0800] "GET /images/d/p16.jpg HTTP/1.1" 304 -
0:0:0:0:0:0:0:1 - - [06/Jun/2017:19:42:55 +0800] "GET /images/tab.png HTTP/1.1" 304 -
0:0:0:0:0:0:0:1 - - [06/Jun/2017:19:42:55 +0800] "GET /images/p-btns-20140611.png HTTP/1.1" 304 -
0:0:0:0:0:0:0:1 - - [06/Jun/2017:19:42:55 +0800] "GET /images/newicon20140417.png HTTP/1.1" 304 -
0:0:0:0:0:0:0:1 - - [06/Jun/2017:19:42:55 +0800] "POST /isLogin.aspx?callback=jQuery2746218 HTTP/1.1" 404 975
0:0:0:0:0:0:0:1 - - [06/Jun/2017:19:42:55 +0800] "GET /images/blank.gif HTTP/1.1" 200 49
0:0:0:0:0:0:0:1 - - [06/Jun/2017:19:43:06 +0800] "GET /images/loading.gif HTTP/1.1" 304 -
0:0:0:0:0:0:0:1 - - [06/Jun/2017:19:45:28 +0800] "GET /portal/search?keyword=2016&price=600-999&brandId2 HTTP/1.1" 200 49964
0:0:0:0:0:0:0:1 - - [06/Jun/2017:19:45:28 +0800] "GET /images/t/t5/e1.jpg HTTP/1.1" 304 -
0:0:0:0:0:0:0:1 - - [06/Jun/2017:19:45:28 +0800] "GET /images/t/t3/e1.jpg HTTP/1.1" 304 -
0:0:0:0:0:0:0:1 - - [06/Jun/2017:19:45:28 +0800] "POST /isLogin.aspx?callback=jQuery2621497 HTTP/1.1" 404 975
0:0:0:0:0:0:0:1 - - [06/Jun/2017:19:53:26 +0800] "POST /isLogin.aspx?callback=jQuery2688420 HTTP/1.1" 404 975
0:0:0:0:0:0:0:1 - - [06/Jun/2017:19:53:32 +0800] "GET / HTTP/1.1" 200 107062
0:0:0:0:0:0:0:1 - - [06/Jun/2017:19:53:32 +0800] "POST /isLogin.aspx?callback=jQuery6076663 HTTP/1.1" 404 975
0:0:0:0:0:0:0:1 - - [06/Jun/2017:19:54:16 +0800] "GET / HTTP/1.1" 200 107062
0:0:0:0:0:0:0:1 - - [06/Jun/2017:19:54:16 +0800] "POST /isLogin.aspx?callback=jQuery3287046 HTTP/1.1" 404 975
0:0:0:0:0:0:0:1 - - [06/Jun/2017:19:55:26 +0800] "GET / HTTP/1.1" 200 107062
0:0:0:0:0:0:0:1 - - [06/Jun/2017:19:55:26 +0800] "POST /isLogin.aspx?callback=jQuery2853040 HTTP/1.1" 404 975
0:0:0:0:0:0:0:1 - - [06/Jun/2017:19:58:50 +0800] "GET / HTTP/1.1" 200 107062
0:0:0:0:0:0:0:1 - - [06/Jun/2017:19:58:50 +0800] "POST /isLogin.aspx?callback=jQuery7939750 HTTP/1.1" 404 975
0:0:0:0:0:0:0:1 - - [06/Jun/2017:20:01:14 +0800] "GET / HTTP/1.1" 200 107062
0:0:0:0:0:0:0:1 - - [06/Jun/2017:20:01:14 +0800] "POST /isLogin.aspx?callback=jQuery4452957 HTTP/1.1" 404 975
0:0:0:0:0:0:0:1 - - [06/Jun/2017:20:10:37 +0800] "GET / HTTP/1.1" 200 107062
0:0:0:0:0:0:0:1 - - [06/Jun/2017:20:10:37 +0800] "POST /isLogin.aspx?callback=jQuery6663079 HTTP/1.1" 404 975
0:0:0:0:0:0:0:1 - - [06/Jun/2017:20:12:34 +0800] "GET / HTTP/1.1" 200 107114
0:0:0:0:0:0:0:1 - - [06/Jun/2017:20:12:34 +0800] "POST /isLogin.aspx?callback=jQuery7924619 HTTP/1.1" 404 975
0:0:0:0:0:0:0:1 - - [06/Jun/2017:20:20:24 +0800] "GET / HTTP/1.1" 200 107116
0:0:0:0:0:0:0:1 - - [06/Jun/2017:20:20:24 +0800] "POST /isLogin.aspx?callback=jQuery8674000 HTTP/1.1" 404 975
0:0:0:0:0:0:0:1 - - [06/Jun/2017:20:25:10 +0800] "GET / HTTP/1.1" 200 107116
0:0:0:0:0:0:0:1 - - [06/Jun/2017:20:25:11 +0800] "POST /isLogin.aspx?callback=jQuery3526604 HTTP/1.1" 404 975
0:0:0:0:0:0:0:1 - - [06/Jun/2017:20:25:24 +0800] "GET / HTTP/1.1" 200 107116
0:0:0:0:0:0:0:1 - - [06/Jun/2017:20:25:25 +0800] "POST /isLogin.aspx?callback=jQuery4022152 HTTP/1.1" 404 975
0:0:0:0:0:0:0:1 - - [06/Jun/2017:20:28:33 +0800] "GET / HTTP/1.1" 200 107116
0:0:0:0:0:0:0:1 - - [06/Jun/2017:20:28:34 +0800] "POST /isLogin.aspx?callback=jQuery9221210 HTTP/1.1" 404 975
0:0:0:0:0:0:0:1 - - [06/Jun/2017:20:28:34 +0800] "GET /favicon.ico HTTP/1.1" 404 973
0:0:0:0:0:0:0:1 - - [06/Jun/2017:20:28:54 +0800] "GET / HTTP/1.1" 200 107116
0:0:0:0:0:0:0:1 - - [06/Jun/2017:20:28:54 +0800] "POST /isLogin.aspx?callback=jQuery695039 HTTP/1.1" 404 975
0:0:0:0:0:0:0:1 - - [06/Jun/2017:20:30:47 +0800] "GET / HTTP/1.1" 200 107116
0:0:0:0:0:0:0:1 - - [06/Jun/2017:20:30:59 +0800] "GET / HTTP/1.1" 200 107116
0:0:0:0:0:0:0:1 - - [06/Jun/2017:20:36:05 +0800] "GET / HTTP/1.1" 200 107116
0:0:0:0:0:0:0:1 - - [06/Jun/2017:20:36:09 +0800] "GET / HTTP/1.1" 200 107116
0:0:0:0:0:0:0:1 - - [06/Jun/2017:20:42:43 +0800] "GET / HTTP/1.1" 200 107118
0:0:0:0:0:0:0:1 - - [06/Jun/2017:20:43:59 +0800] "GET / HTTP/1.1" 200 107120
0:0:0:0:0:0:0:1 - - [06/Jun/2017:20:44:03 +0800] "GET / HTTP/1.1" 200 107120
0:0:0:0:0:0:0:1 - - [06/Jun/2017:20:45:13 +0800] "GET / HTTP/1.1" 200 107120
0:0:0:0:0:0:0:1 - - [06/Jun/2017:20:45:13 +0800] "GET /css/babasport.css HTTP/1.1" 200 109784
0:0:0:0:0:0:0:1 - - [06/Jun/2017:20:45:13 +0800] "GET /js/babasport.js HTTP/1.1" 200 648
0:0:0:0:0:0:0:1 - - [06/Jun/2017:20:45:13 +0800] "GET /js/home.js HTTP/1.1" 200 50091
0:0:0:0:0:0:0:1 - - [06/Jun/2017:20:45:13 +0800] "GET /js/base-v1.js HTTP/1.1" 200 10260
0:0:0:0:0:0:0:1 - - [06/Jun/2017:20:45:13 +0800] "GET /js/jquery-extend.js HTTP/1.1" 200 1802
0:0:0:0:0:0:0:1 - - [06/Jun/2017:20:45:13 +0800] "GET /js/lib-v1.js HTTP/1.1" 200 122984
0:0:0:0:0:0:0:1 - - [06/Jun/2017:20:45:13 +0800] "GET /js/jquery-1.6.4.js HTTP/1.1" 200 92010
0:0:0:0:0:0:0:1 - - [06/Jun/2017:20:45:13 +0800] "GET /images/XBB2.png HTTP/1.1" 200 5507
0:0:0:0:0:0:0:1 - - [06/Jun/2017:20:45:14 +0800] "GET /images/virtuals-20140606.png HTTP/1.1" 200 3316
0:0:0:0:0:0:0:1 - - [06/Jun/2017:20:45:14 +0800] "GET /images/20130330B_1.png HTTP/1.1" 200 4620
0:0:0:0:0:0:0:1 - - [06/Jun/2017:20:45:14 +0800] "GET /images/20130330A_2.png HTTP/1.1" 200 8252
0:0:0:0:0:0:0:1 - - [06/Jun/2017:20:45:14 +0800] "GET /images/loading-jd.gif HTTP/1.1" 200 166
0:0:0:0:0:0:0:1 - - [06/Jun/2017:20:45:14 +0800] "GET /images/20130330C.png HTTP/1.1" 200 6900
0:0:0:0:0:0:0:1 - - [06/Jun/2017:20:45:14 +0800] "GET /images/20130725.png HTTP/1.1" 200 275
0:0:0:0:0:0:0:1 - - [06/Jun/2017:20:45:14 +0800] "GET /images/blank.gif HTTP/1.1" 200 49
0:0:0:0:0:0:0:1 - - [06/Jun/2017:20:45:14 +0800] "GET /images/17.png HTTP/1.1" 200 1802
0:0:0:0:0:0:0:1 - - [06/Jun/2017:20:45:17 +0800] "GET /favicon.ico HTTP/1.1" 404 973
0:0:0:0:0:0:0:1 - - [06/Jun/2017:20:45:17 +0800] "GET /favicon.ico HTTP/1.1" 404 973
0:0:0:0:0:0:0:1 - - [06/Jun/2017:20:45:39 +0800] "GET / HTTP/1.1" 200 107120
0:0:0:0:0:0:0:1 - - [06/Jun/2017:20:45:39 +0800] "GET /favicon.ico HTTP/1.1" 404 973
