<?xml version="1.0" encoding="UTF-8"?>
<session version="1.0">
<refactoring accessors="true" comment="Delete element from project &apos;crm_client&apos;&#x0D;&#x0A;- Original project: &apos;crm_client&apos;&#x0D;&#x0A;- Original element: &apos;target&apos;" description="Delete element" element1="target" elements="0" flags="589830" id="org.eclipse.jdt.ui.delete" resources="1" stamp="1494068522851" subPackages="false" version="1.0"/>
</session>