127.0.0.1 - - [25/May/2017:00:16:45 +0800] "GET / HTTP/1.1" 404 951
127.0.0.1 - - [25/May/2017:00:33:16 +0800] "GET / HTTP/1.1" 404 951
127.0.0.1 - - [25/May/2017:00:38:59 +0800] "GET / HTTP/1.1" 404 951
127.0.0.1 - - [25/May/2017:00:48:09 +0800] "GET / HTTP/1.1" 404 951
127.0.0.1 - - [25/May/2017:10:39:48 +0800] "GET / HTTP/1.1" 404 951
127.0.0.1 - - [25/May/2017:10:40:26 +0800] "GET / HTTP/1.1" 404 951
127.0.0.1 - - [25/May/2017:13:31:07 +0800] "GET / HTTP/1.1" 404 951
127.0.0.1 - - [25/May/2017:13:36:58 +0800] "GET / HTTP/1.1" 404 951
127.0.0.1 - - [25/May/2017:13:51:06 +0800] "GET / HTTP/1.1" 404 951
127.0.0.1 - - [25/May/2017:16:31:08 +0800] "GET / HTTP/1.1" 404 951
127.0.0.1 - - [25/May/2017:16:33:08 +0800] "GET / HTTP/1.1" 404 951
127.0.0.1 - - [25/May/2017:16:49:52 +0800] "GET / HTTP/1.1" 404 951
127.0.0.1 - - [25/May/2017:17:13:28 +0800] "GET / HTTP/1.1" 404 951
127.0.0.1 - - [25/May/2017:17:17:43 +0800] "GET / HTTP/1.1" 404 951
127.0.0.1 - - [25/May/2017:17:33:15 +0800] "GET / HTTP/1.1" 404 951
127.0.0.1 - - [25/May/2017:17:38:33 +0800] "GET / HTTP/1.1" 404 951
127.0.0.1 - - [25/May/2017:17:42:14 +0800] "GET / HTTP/1.1" 404 951
127.0.0.1 - - [25/May/2017:17:47:58 +0800] "GET / HTTP/1.1" 404 951
127.0.0.1 - - [25/May/2017:17:51:47 +0800] "GET / HTTP/1.1" 404 951
127.0.0.1 - - [25/May/2017:18:03:45 +0800] "GET / HTTP/1.1" 404 951
127.0.0.1 - - [25/May/2017:18:11:35 +0800] "GET / HTTP/1.1" 404 951
127.0.0.1 - - [25/May/2017:18:14:43 +0800] "GET / HTTP/1.1" 404 951
127.0.0.1 - - [25/May/2017:18:18:11 +0800] "GET / HTTP/1.1" 404 951
127.0.0.1 - - [25/May/2017:19:43:30 +0800] "GET / HTTP/1.1" 404 951
127.0.0.1 - - [25/May/2017:20:48:53 +0800] "GET / HTTP/1.1" 404 951
127.0.0.1 - - [25/May/2017:21:07:44 +0800] "GET / HTTP/1.1" 404 951
127.0.0.1 - - [25/May/2017:21:27:29 +0800] "GET / HTTP/1.1" 404 951
127.0.0.1 - - [25/May/2017:22:05:33 +0800] "GET / HTTP/1.1" 404 -
127.0.0.1 - - [25/May/2017:22:08:46 +0800] "GET / HTTP/1.1" 404 -
127.0.0.1 - - [25/May/2017:22:10:06 +0800] "GET / HTTP/1.1" 404 -
127.0.0.1 - - [25/May/2017:22:12:13 +0800] "GET / HTTP/1.1" 404 -
127.0.0.1 - - [25/May/2017:22:26:00 +0800] "GET / HTTP/1.1" 404 951
127.0.0.1 - - [25/May/2017:22:29:07 +0800] "GET / HTTP/1.1" 404 951
127.0.0.1 - - [25/May/2017:23:01:00 +0800] "GET / HTTP/1.1" 404 951
127.0.0.1 - - [25/May/2017:23:44:00 +0800] "GET / HTTP/1.1" 404 951
