127.0.0.1 - - [23/May/2017:13:38:48 +0800] "GET / HTTP/1.1" 404 951
127.0.0.1 - - [23/May/2017:13:40:15 +0800] "GET / HTTP/1.1" 404 951
127.0.0.1 - - [23/May/2017:13:42:21 +0800] "GET / HTTP/1.1" 404 951
127.0.0.1 - - [23/May/2017:13:48:01 +0800] "GET / HTTP/1.1" 404 951
127.0.0.1 - - [23/May/2017:13:53:58 +0800] "GET / HTTP/1.1" 404 -
127.0.0.1 - - [23/May/2017:13:55:46 +0800] "GET / HTTP/1.1" 404 951
