127.0.0.1 - - [10/Jun/2017:21:28:15 +0800] "GET / HTTP/1.1" 404 951
0:0:0:0:0:0:0:1 - - [10/Jun/2017:21:29:24 +0800] "GET /bos_web/inde.jsp HTTP/1.1" 302 -
0:0:0:0:0:0:0:1 - - [10/Jun/2017:21:29:26 +0800] "GET /bos_web/login.jsp;jsessionid=9D5528B6CD3A5C88B8B2C4FC30AD1781 HTTP/1.1" 200 3844
0:0:0:0:0:0:0:1 - - [10/Jun/2017:21:29:30 +0800] "GET /bos_web/validatecode.jsp HTTP/1.1" 200 1888
0:0:0:0:0:0:0:1 - - [10/Jun/2017:21:29:30 +0800] "GET /favicon.ico HTTP/1.1" 404 973
0:0:0:0:0:0:0:1 - - [10/Jun/2017:21:29:39 +0800] "POST /bos_web/userAction_login.action HTTP/1.1" 200 9710
0:0:0:0:0:0:0:1 - - [10/Jun/2017:21:29:39 +0800] "GET /bos_web/page_common_home.action HTTP/1.1" 200 2996
0:0:0:0:0:0:0:1 - - [10/Jun/2017:21:29:39 +0800] "GET /bos_web/page_common_home.action HTTP/1.1" 200 2996
0:0:0:0:0:0:0:1 - - [10/Jun/2017:21:29:39 +0800] "GET /bos_web/page_common_home.action HTTP/1.1" 200 2996
0:0:0:0:0:0:0:1 - - [10/Jun/2017:21:29:39 +0800] "GET /bos_web/page_common_home.action HTTP/1.1" 200 2996
0:0:0:0:0:0:0:1 - - [10/Jun/2017:21:29:40 +0800] "POST /bos_web/json/admin.json HTTP/1.1" 200 281
0:0:0:0:0:0:0:1 - - [10/Jun/2017:21:29:40 +0800] "GET /bos_web/page_portal_gonggao.action?_=1497101380294 HTTP/1.1" 200 637
0:0:0:0:0:0:0:1 - - [10/Jun/2017:21:29:40 +0800] "GET /bos_web/page_portal_daiban.action?_=1497101380313 HTTP/1.1" 200 887
0:0:0:0:0:0:0:1 - - [10/Jun/2017:21:29:40 +0800] "POST /bos_web/functionAction_findMenu.action HTTP/1.1" 200 2004
0:0:0:0:0:0:0:1 - - [10/Jun/2017:21:29:40 +0800] "GET /bos_web/page_portal_yujing.action?_=1497101380413 HTTP/1.1" 200 614
0:0:0:0:0:0:0:1 - - [10/Jun/2017:21:29:40 +0800] "GET /bos_web/page_portal_bug.action?_=1497101380428 HTTP/1.1" 200 861
0:0:0:0:0:0:0:1 - - [10/Jun/2017:21:30:06 +0800] "GET /bos_web/page_base_staff.action HTTP/1.1" 500 17878
0:0:0:0:0:0:0:1 - - [10/Jun/2017:21:31:13 +0800] "GET /bos_web/page_base_region.action HTTP/1.1" 200 9542
0:0:0:0:0:0:0:1 - - [10/Jun/2017:21:31:14 +0800] "POST /bos_web/regionAction_pageQuery.action HTTP/1.1" 200 5700
0:0:0:0:0:0:0:1 - - [10/Jun/2017:21:31:15 +0800] "GET /bos_web/page_base_subarea.action HTTP/1.1" 200 14751
0:0:0:0:0:0:0:1 - - [10/Jun/2017:21:31:15 +0800] "POST /bos_web/regionAction_listajax.action HTTP/1.1" 200 14477
0:0:0:0:0:0:0:1 - - [10/Jun/2017:21:31:16 +0800] "POST /bos_web/regionAction_listajax.action HTTP/1.1" 200 14477
0:0:0:0:0:0:0:1 - - [10/Jun/2017:21:31:16 +0800] "POST /bos_web/subareaAction_findGroupedSubareas.action HTTP/1.1" 200 199
0:0:0:0:0:0:0:1 - - [10/Jun/2017:21:31:16 +0800] "POST /bos_web/subareaAction_pageQuery.action HTTP/1.1" 200 4630
0:0:0:0:0:0:0:1 - - [10/Jun/2017:21:31:17 +0800] "GET /bos_web/page_base_decidedzone.action HTTP/1.1" 200 13016
0:0:0:0:0:0:0:1 - - [10/Jun/2017:21:31:17 +0800] "POST /bos_web/subareaAction_listajax.action HTTP/1.1" 200 1848
0:0:0:0:0:0:0:1 - - [10/Jun/2017:21:31:17 +0800] "POST /bos_web/decidedzoneAction_pageQuery.action HTTP/1.1" 200 733
0:0:0:0:0:0:0:1 - - [10/Jun/2017:21:31:17 +0800] "POST /bos_web/staffAction_listajax.action HTTP/1.1" 200 753
0:0:0:0:0:0:0:1 - - [10/Jun/2017:21:31:19 +0800] "GET /bos_web/page_qupai_noticebill_add.action HTTP/1.1" 200 5218
0:0:0:0:0:0:0:1 - - [10/Jun/2017:21:31:19 +0800] "GET /bos_web/page_qupai_quickworkorder.action HTTP/1.1" 200 4755
0:0:0:0:0:0:0:1 - - [10/Jun/2017:21:31:20 +0800] "POST /bos_web/workordermanageAction_pageQuery.action HTTP/1.1" 200 69
0:0:0:0:0:0:0:1 - - [10/Jun/2017:21:31:20 +0800] "GET /bos_web/page_qupai_workorderimport.action HTTP/1.1" 200 4222
0:0:0:0:0:0:0:1 - - [10/Jun/2017:21:31:23 +0800] "GET /bos_web/page_qupai_diaodu.action HTTP/1.1" 200 4428
0:0:0:0:0:0:0:1 - - [10/Jun/2017:21:31:23 +0800] "POST /bos_web/staffAction_listajax.action HTTP/1.1" 200 753
0:0:0:0:0:0:0:1 - - [10/Jun/2017:21:31:23 +0800] "POST /bos_web/noticebillAction_pageQuery.action HTTP/1.1" 200 2002
0:0:0:0:0:0:0:1 - - [10/Jun/2017:21:31:36 +0800] "GET /bos_web/1212 HTTP/1.1" 404 1163
0:0:0:0:0:0:0:1 - - [10/Jun/2017:21:31:39 +0800] "GET /bos_web/page_admin_role.action HTTP/1.1" 200 3302
0:0:0:0:0:0:0:1 - - [10/Jun/2017:21:31:39 +0800] "POST /bos_web/roleAction_pageQuery.action HTTP/1.1" 200 842
0:0:0:0:0:0:0:1 - - [10/Jun/2017:21:31:41 +0800] "GET /bos_web/page_admin_function.action HTTP/1.1" 200 2206
0:0:0:0:0:0:0:1 - - [10/Jun/2017:21:31:41 +0800] "POST /bos_web/functionAction_pageQuery.action HTTP/1.1" 200 1515
0:0:0:0:0:0:0:1 - - [10/Jun/2017:21:31:45 +0800] "GET /bos_web/page_admin_userlist.action HTTP/1.1" 200 3663
0:0:0:0:0:0:0:1 - - [10/Jun/2017:21:31:45 +0800] "POST /bos_web/userAction_pageQuery.action HTTP/1.1" 200 1268
0:0:0:0:0:0:0:1 - - [10/Jun/2017:21:31:49 +0800] "POST /bos_web/userAction_pageQuery.action HTTP/1.1" 200 1268
0:0:0:0:0:0:0:1 - - [10/Jun/2017:21:31:52 +0800] "POST /bos_web/userAction_pageQuery.action HTTP/1.1" 200 1268
0:0:0:0:0:0:0:1 - - [10/Jun/2017:21:40:48 +0800] "POST /bos_web/userAction_login.action HTTP/1.1" 200 9710
0:0:0:0:0:0:0:1 - - [10/Jun/2017:21:40:48 +0800] "GET /bos_web/page_common_home.action HTTP/1.1" 200 2996
0:0:0:0:0:0:0:1 - - [10/Jun/2017:21:40:48 +0800] "GET /bos_web/page_common_home.action HTTP/1.1" 200 2996
0:0:0:0:0:0:0:1 - - [10/Jun/2017:21:40:48 +0800] "GET /bos_web/page_common_home.action HTTP/1.1" 200 2996
0:0:0:0:0:0:0:1 - - [10/Jun/2017:21:40:48 +0800] "GET /bos_web/page_common_home.action HTTP/1.1" 200 2996
0:0:0:0:0:0:0:1 - - [10/Jun/2017:21:40:49 +0800] "POST /bos_web/json/admin.json HTTP/1.1" 200 281
0:0:0:0:0:0:0:1 - - [10/Jun/2017:21:40:49 +0800] "POST /bos_web/functionAction_findMenu.action HTTP/1.1" 200 1859
0:0:0:0:0:0:0:1 - - [10/Jun/2017:21:40:49 +0800] "GET /bos_web/page_portal_gonggao.action?_=1497102049107 HTTP/1.1" 200 637
0:0:0:0:0:0:0:1 - - [10/Jun/2017:21:40:49 +0800] "GET /bos_web/page_portal_daiban.action?_=1497102049123 HTTP/1.1" 200 887
0:0:0:0:0:0:0:1 - - [10/Jun/2017:21:40:49 +0800] "GET /bos_web/page_portal_yujing.action?_=1497102049134 HTTP/1.1" 200 614
0:0:0:0:0:0:0:1 - - [10/Jun/2017:21:40:49 +0800] "GET /bos_web/page_portal_bug.action?_=1497102049145 HTTP/1.1" 200 861
0:0:0:0:0:0:0:1 - - [10/Jun/2017:21:40:52 +0800] "GET /bos_web/page_base_decidedzone.action HTTP/1.1" 200 13016
0:0:0:0:0:0:0:1 - - [10/Jun/2017:21:40:52 +0800] "POST /bos_web/staffAction_listajax.action HTTP/1.1" 200 753
0:0:0:0:0:0:0:1 - - [10/Jun/2017:21:40:52 +0800] "POST /bos_web/decidedzoneAction_pageQuery.action HTTP/1.1" 200 733
0:0:0:0:0:0:0:1 - - [10/Jun/2017:21:40:52 +0800] "POST /bos_web/subareaAction_listajax.action HTTP/1.1" 200 1848
0:0:0:0:0:0:0:1 - - [10/Jun/2017:21:40:53 +0800] "GET /bos_web/page_base_staff.action HTTP/1.1" 200 13226
0:0:0:0:0:0:0:1 - - [10/Jun/2017:21:40:53 +0800] "POST /bos_web/staffAction_pageQuery.action HTTP/1.1" 200 1155
0:0:0:0:0:0:0:1 - - [10/Jun/2017:21:40:59 +0800] "GET /bos_web/page_base_region.action HTTP/1.1" 200 9542
0:0:0:0:0:0:0:1 - - [10/Jun/2017:21:40:59 +0800] "POST /bos_web/regionAction_pageQuery.action HTTP/1.1" 200 5700
0:0:0:0:0:0:0:1 - - [10/Jun/2017:22:04:48 +0800] "GET /bos_web/page_base_decidedzone.action HTTP/1.1" 200 13016
0:0:0:0:0:0:0:1 - - [10/Jun/2017:22:04:49 +0800] "POST /bos_web/staffAction_listajax.action HTTP/1.1" 200 753
0:0:0:0:0:0:0:1 - - [10/Jun/2017:22:04:49 +0800] "POST /bos_web/decidedzoneAction_pageQuery.action HTTP/1.1" 200 733
0:0:0:0:0:0:0:1 - - [10/Jun/2017:22:04:49 +0800] "POST /bos_web/subareaAction_listajax.action HTTP/1.1" 200 1848
0:0:0:0:0:0:0:1 - - [10/Jun/2017:22:19:31 +0800] "GET /bos_web/page_base_standard.action HTTP/1.1" 404 1029
0:0:0:0:0:0:0:1 - - [10/Jun/2017:22:19:32 +0800] "GET /bos_web/page_base_staff.action HTTP/1.1" 200 13226
0:0:0:0:0:0:0:1 - - [10/Jun/2017:22:19:32 +0800] "POST /bos_web/staffAction_pageQuery.action HTTP/1.1" 200 1155
0:0:0:0:0:0:0:1 - - [10/Jun/2017:22:22:00 +0800] "GET /bos_web/page_base_region.action HTTP/1.1" 200 9542
0:0:0:0:0:0:0:1 - - [10/Jun/2017:22:22:00 +0800] "POST /bos_web/regionAction_pageQuery.action HTTP/1.1" 200 5700
0:0:0:0:0:0:0:1 - - [10/Jun/2017:22:26:05 +0800] "GET /bos_web/page_base_subarea.action HTTP/1.1" 200 14751
0:0:0:0:0:0:0:1 - - [10/Jun/2017:22:26:05 +0800] "POST /bos_web/regionAction_listajax.action HTTP/1.1" 200 14477
0:0:0:0:0:0:0:1 - - [10/Jun/2017:22:26:05 +0800] "POST /bos_web/regionAction_listajax.action HTTP/1.1" 200 14477
0:0:0:0:0:0:0:1 - - [10/Jun/2017:22:26:06 +0800] "POST /bos_web/subareaAction_findGroupedSubareas.action HTTP/1.1" 200 199
0:0:0:0:0:0:0:1 - - [10/Jun/2017:22:26:06 +0800] "POST /bos_web/subareaAction_pageQuery.action HTTP/1.1" 200 4630
0:0:0:0:0:0:0:1 - - [10/Jun/2017:22:29:23 +0800] "GET /bos_web/page_base_decidedzone.action HTTP/1.1" 200 13016
0:0:0:0:0:0:0:1 - - [10/Jun/2017:22:29:24 +0800] "POST /bos_web/staffAction_listajax.action HTTP/1.1" 200 753
0:0:0:0:0:0:0:1 - - [10/Jun/2017:22:29:24 +0800] "POST /bos_web/decidedzoneAction_pageQuery.action HTTP/1.1" 200 733
0:0:0:0:0:0:0:1 - - [10/Jun/2017:22:29:24 +0800] "POST /bos_web/subareaAction_listajax.action HTTP/1.1" 200 1848
0:0:0:0:0:0:0:1 - - [10/Jun/2017:22:31:18 +0800] "POST /bos_web/subareaAction_findSubareasByDecidedzone.action?decidedzoneId=DQ1002 HTTP/1.1" 200 2
127.0.0.1 - - [10/Jun/2017:22:31:19 +0800] "POST /crm/cxf/customer HTTP/1.1" 404 983
0:0:0:0:0:0:0:1 - - [10/Jun/2017:22:31:19 +0800] "POST /bos_web/decidedzoneAction_findAssociationCustomers.action?id=DQ1002 HTTP/1.1" 500 18422
0:0:0:0:0:0:0:1 - - [10/Jun/2017:22:31:26 +0800] "POST /bos_web/subareaAction_findSubareasByDecidedzone.action?decidedzoneId=DQ1003 HTTP/1.1" 200 2
127.0.0.1 - - [10/Jun/2017:22:31:26 +0800] "POST /crm/cxf/customer HTTP/1.1" 404 983
0:0:0:0:0:0:0:1 - - [10/Jun/2017:22:31:26 +0800] "POST /bos_web/decidedzoneAction_findAssociationCustomers.action?id=DQ1003 HTTP/1.1" 500 18422
0:0:0:0:0:0:0:1 - - [10/Jun/2017:22:31:27 +0800] "POST /bos_web/subareaAction_findSubareasByDecidedzone.action?decidedzoneId=dq1001 HTTP/1.1" 200 2
127.0.0.1 - - [10/Jun/2017:22:31:27 +0800] "POST /crm/cxf/customer HTTP/1.1" 404 983
0:0:0:0:0:0:0:1 - - [10/Jun/2017:22:31:27 +0800] "POST /bos_web/decidedzoneAction_findAssociationCustomers.action?id=dq1001 HTTP/1.1" 500 18422
127.0.0.1 - - [10/Jun/2017:22:32:07 +0800] "POST /crm/cxf/customer HTTP/1.1" 404 983
0:0:0:0:0:0:0:1 - - [10/Jun/2017:22:32:07 +0800] "POST /bos_web/decidedzoneAction_findAssociationCustomers.action HTTP/1.1" 500 18422
127.0.0.1 - - [10/Jun/2017:22:32:07 +0800] "POST /crm/cxf/customer HTTP/1.1" 404 983
0:0:0:0:0:0:0:1 - - [10/Jun/2017:22:32:07 +0800] "POST /bos_web/decidedzoneAction_findNoAssociationCustomers.action HTTP/1.1" 500 18424
127.0.0.1 - - [10/Jun/2017:22:32:09 +0800] "POST /crm/cxf/customer HTTP/1.1" 404 983
0:0:0:0:0:0:0:1 - - [10/Jun/2017:22:32:09 +0800] "POST /bos_web/decidedzoneAction_assigncustomerstodecidedzone.action HTTP/1.1" 500 18432
0:0:0:0:0:0:0:1 - - [10/Jun/2017:22:32:14 +0800] "GET /bos_web/page_base_decidedzone.action HTTP/1.1" 200 13016
0:0:0:0:0:0:0:1 - - [10/Jun/2017:22:32:14 +0800] "POST /bos_web/staffAction_listajax.action HTTP/1.1" 200 753
0:0:0:0:0:0:0:1 - - [10/Jun/2017:22:32:14 +0800] "POST /bos_web/subareaAction_listajax.action HTTP/1.1" 200 1848
0:0:0:0:0:0:0:1 - - [10/Jun/2017:22:32:14 +0800] "POST /bos_web/decidedzoneAction_pageQuery.action HTTP/1.1" 200 733
0:0:0:0:0:0:0:1 - - [10/Jun/2017:22:33:09 +0800] "GET /bos_web/page_qupai_noticebill_add.action HTTP/1.1" 200 5218
127.0.0.1 - - [10/Jun/2017:22:33:49 +0800] "POST /crm/cxf/customer HTTP/1.1" 404 983
0:0:0:0:0:0:0:1 - - [10/Jun/2017:22:33:49 +0800] "POST /bos_web/noticebillAction_findCustoemrByTelephone.action HTTP/1.1" 500 18408
127.0.0.1 - - [10/Jun/2017:22:34:07 +0800] "POST /crm/cxf/customer HTTP/1.1" 404 983
0:0:0:0:0:0:0:1 - - [10/Jun/2017:22:34:07 +0800] "POST /bos_web/noticebillAction_findCustoemrByTelephone.action HTTP/1.1" 500 18408
0:0:0:0:0:0:0:1 - - [10/Jun/2017:22:34:07 +0800] "GET /bos_web/page_qupai_noticebill.action HTTP/1.1" 200 4930
0:0:0:0:0:0:0:1 - - [10/Jun/2017:22:34:07 +0800] "POST /bos_web/workbillAction_pageQuery.action HTTP/1.1" 200 3543
0:0:0:0:0:0:0:1 - - [10/Jun/2017:22:34:24 +0800] "GET /bos_web/js/easyui/themes/default/images/calendar_arrows.png HTTP/1.1" 200 173
0:0:0:0:0:0:0:1 - - [10/Jun/2017:22:34:53 +0800] "GET /bos_web/page_qupai_quickworkorder.action HTTP/1.1" 200 4755
0:0:0:0:0:0:0:1 - - [10/Jun/2017:22:34:53 +0800] "POST /bos_web/workordermanageAction_pageQuery.action HTTP/1.1" 200 69
0:0:0:0:0:0:0:1 - - [10/Jun/2017:22:34:54 +0800] "GET /bos_web/page_qupai_workorderimport.action HTTP/1.1" 200 4222
0:0:0:0:0:0:0:1 - - [10/Jun/2017:22:34:57 +0800] "GET /bos_web/page_qupai_quickworkorder.action HTTP/1.1" 200 4755
0:0:0:0:0:0:0:1 - - [10/Jun/2017:22:34:57 +0800] "POST /bos_web/workordermanageAction_pageQuery.action HTTP/1.1" 200 69
0:0:0:0:0:0:0:1 - - [10/Jun/2017:22:35:20 +0800] "GET /bos_web/page_qupai_diaodu.action HTTP/1.1" 200 4428
0:0:0:0:0:0:0:1 - - [10/Jun/2017:22:35:20 +0800] "POST /bos_web/staffAction_listajax.action HTTP/1.1" 200 753
0:0:0:0:0:0:0:1 - - [10/Jun/2017:22:35:20 +0800] "POST /bos_web/noticebillAction_pageQuery.action HTTP/1.1" 200 2002
0:0:0:0:0:0:0:1 - - [10/Jun/2017:22:35:25 +0800] "GET /bos_web/page_qupai_diaodu.action HTTP/1.1" 200 4428
0:0:0:0:0:0:0:1 - - [10/Jun/2017:22:35:25 +0800] "POST /bos_web/staffAction_listajax.action HTTP/1.1" 200 753
0:0:0:0:0:0:0:1 - - [10/Jun/2017:22:35:25 +0800] "POST /bos_web/noticebillAction_pageQuery.action HTTP/1.1" 200 2002
0:0:0:0:0:0:0:1 - - [10/Jun/2017:22:37:24 +0800] "GET /bos_web/page_admin_userlist.action HTTP/1.1" 200 3663
0:0:0:0:0:0:0:1 - - [10/Jun/2017:22:37:25 +0800] "POST /bos_web/userAction_pageQuery.action HTTP/1.1" 200 1073
0:0:0:0:0:0:0:1 - - [10/Jun/2017:22:38:00 +0800] "GET /bos_web/page_admin_userinfo.action HTTP/1.1" 200 4546
0:0:0:0:0:0:0:1 - - [10/Jun/2017:22:38:00 +0800] "POST /bos_web/roleAction_listajax.action HTTP/1.1" 200 776
0:0:0:0:0:0:0:1 - - [10/Jun/2017:22:38:45 +0800] "GET /bos_web/page_admin_userlist.action HTTP/1.1" 200 3663
0:0:0:0:0:0:0:1 - - [10/Jun/2017:22:38:45 +0800] "POST /bos_web/userAction_pageQuery.action HTTP/1.1" 200 1073
0:0:0:0:0:0:0:1 - - [10/Jun/2017:22:38:54 +0800] "POST /bos_web/userAction_pageQuery.action HTTP/1.1" 200 1073
0:0:0:0:0:0:0:1 - - [10/Jun/2017:22:38:58 +0800] "POST /bos_web/userAction_pageQuery.action HTTP/1.1" 200 1073
0:0:0:0:0:0:0:1 - - [10/Jun/2017:22:39:29 +0800] "GET /bos_web/page_admin_function.action HTTP/1.1" 200 2206
0:0:0:0:0:0:0:1 - - [10/Jun/2017:22:39:30 +0800] "POST /bos_web/functionAction_pageQuery.action HTTP/1.1" 200 1515
0:0:0:0:0:0:0:1 - - [10/Jun/2017:22:39:43 +0800] "GET /bos_web/page_admin_function_add.action HTTP/1.1" 200 3094
0:0:0:0:0:0:0:1 - - [10/Jun/2017:22:39:43 +0800] "POST /bos_web/functionAction_listajax.action HTTP/1.1" 200 1859
0:0:0:0:0:0:0:1 - - [10/Jun/2017:22:42:40 +0800] "GET /bos_web/page_admin_role.action HTTP/1.1" 200 3302
0:0:0:0:0:0:0:1 - - [10/Jun/2017:22:42:40 +0800] "POST /bos_web/roleAction_pageQuery.action HTTP/1.1" 200 842
