127.0.0.1 - - [12/Jun/2017:10:10:38 +0800] "GET / HTTP/1.1" 404 951
0:0:0:0:0:0:0:1 - - [12/Jun/2017:10:11:40 +0800] "GET /bos_web/index.jsp HTTP/1.1" 302 -
0:0:0:0:0:0:0:1 - - [12/Jun/2017:10:11:42 +0800] "GET /bos_web/login.jsp;jsessionid=06149CDA9F5C146578C4E3756B34F3E6 HTTP/1.1" 200 3844
0:0:0:0:0:0:0:1 - - [12/Jun/2017:10:11:44 +0800] "GET /bos_web/validatecode.jsp HTTP/1.1" 200 1948
0:0:0:0:0:0:0:1 - - [12/Jun/2017:10:11:44 +0800] "GET /favicon.ico HTTP/1.1" 404 973
0:0:0:0:0:0:0:1 - - [12/Jun/2017:10:13:23 +0800] "POST /bos_web/userAction_login.action HTTP/1.1" 200 9710
0:0:0:0:0:0:0:1 - - [12/Jun/2017:10:13:23 +0800] "GET /bos_web/page_common_home.action HTTP/1.1" 200 2996
0:0:0:0:0:0:0:1 - - [12/Jun/2017:10:13:23 +0800] "GET /bos_web/page_common_home.action HTTP/1.1" 200 2996
0:0:0:0:0:0:0:1 - - [12/Jun/2017:10:13:23 +0800] "GET /bos_web/page_common_home.action HTTP/1.1" 200 2996
0:0:0:0:0:0:0:1 - - [12/Jun/2017:10:13:23 +0800] "GET /bos_web/page_common_home.action HTTP/1.1" 200 2996
0:0:0:0:0:0:0:1 - - [12/Jun/2017:10:13:23 +0800] "POST /bos_web/json/admin.json HTTP/1.1" 200 281
0:0:0:0:0:0:0:1 - - [12/Jun/2017:10:13:24 +0800] "GET /bos_web/page_portal_bug.action?_=1497233604043 HTTP/1.1" 200 861
0:0:0:0:0:0:0:1 - - [12/Jun/2017:10:13:24 +0800] "GET /bos_web/page_portal_yujing.action?_=1497233604021 HTTP/1.1" 200 614
0:0:0:0:0:0:0:1 - - [12/Jun/2017:10:13:24 +0800] "GET /bos_web/page_portal_gonggao.action?_=1497233603982 HTTP/1.1" 200 637
0:0:0:0:0:0:0:1 - - [12/Jun/2017:10:13:24 +0800] "GET /bos_web/page_portal_daiban.action?_=1497233604000 HTTP/1.1" 200 887
0:0:0:0:0:0:0:1 - - [12/Jun/2017:10:13:24 +0800] "POST /bos_web/functionAction_findMenu.action HTTP/1.1" 200 1859
0:0:0:0:0:0:0:1 - - [12/Jun/2017:10:13:44 +0800] "GET /bos_web/js/easyui/themes/gray/easyui.css HTTP/1.1" 200 44351
0:0:0:0:0:0:0:1 - - [12/Jun/2017:10:13:44 +0800] "GET /bos_web/js/easyui/themes/gray/images/menu_arrows.png HTTP/1.1" 200 160
0:0:0:0:0:0:0:1 - - [12/Jun/2017:10:13:44 +0800] "GET /bos_web/js/easyui/themes/gray/images/accordion_arrows.png HTTP/1.1" 200 125
0:0:0:0:0:0:0:1 - - [12/Jun/2017:10:13:44 +0800] "GET /bos_web/js/easyui/themes/gray/images/blank.gif HTTP/1.1" 200 43
0:0:0:0:0:0:0:1 - - [12/Jun/2017:10:13:44 +0800] "GET /bos_web/js/easyui/themes/gray/images/tabs_icons.png HTTP/1.1" 200 144
0:0:0:0:0:0:0:1 - - [12/Jun/2017:10:13:44 +0800] "GET /bos_web/js/easyui/themes/gray/images/layout_arrows.png HTTP/1.1" 200 181
0:0:0:0:0:0:0:1 - - [12/Jun/2017:10:13:46 +0800] "GET /bos_web/js/easyui/themes/black/easyui.css HTTP/1.1" 200 44662
0:0:0:0:0:0:0:1 - - [12/Jun/2017:10:13:46 +0800] "GET /bos_web/js/easyui/themes/black/images/blank.gif HTTP/1.1" 200 43
0:0:0:0:0:0:0:1 - - [12/Jun/2017:10:13:46 +0800] "GET /bos_web/js/easyui/themes/black/images/accordion_arrows.png HTTP/1.1" 200 122
0:0:0:0:0:0:0:1 - - [12/Jun/2017:10:13:46 +0800] "GET /bos_web/js/easyui/themes/black/images/tabs_icons.png HTTP/1.1" 200 144
0:0:0:0:0:0:0:1 - - [12/Jun/2017:10:13:46 +0800] "GET /bos_web/js/easyui/themes/black/images/menu_arrows.png HTTP/1.1" 200 134
0:0:0:0:0:0:0:1 - - [12/Jun/2017:10:13:46 +0800] "GET /bos_web/js/easyui/themes/black/images/layout_arrows.png HTTP/1.1" 200 179
0:0:0:0:0:0:0:1 - - [12/Jun/2017:10:21:34 +0800] "POST /bos_web/userAction_login.action HTTP/1.1" 200 9690
0:0:0:0:0:0:0:1 - - [12/Jun/2017:10:21:34 +0800] "GET /bos_web/page_common_home.action HTTP/1.1" 200 2996
0:0:0:0:0:0:0:1 - - [12/Jun/2017:10:21:34 +0800] "GET /bos_web/page_common_home.action HTTP/1.1" 200 2996
0:0:0:0:0:0:0:1 - - [12/Jun/2017:10:21:34 +0800] "GET /bos_web/page_common_home.action HTTP/1.1" 200 2996
0:0:0:0:0:0:0:1 - - [12/Jun/2017:10:21:34 +0800] "GET /bos_web/page_common_home.action HTTP/1.1" 200 2996
0:0:0:0:0:0:0:1 - - [12/Jun/2017:10:21:34 +0800] "POST /bos_web/json/admin.json HTTP/1.1" 200 281
0:0:0:0:0:0:0:1 - - [12/Jun/2017:10:21:34 +0800] "POST /bos_web/functionAction_findMenu.action HTTP/1.1" 200 1859
0:0:0:0:0:0:0:1 - - [12/Jun/2017:10:21:35 +0800] "GET /bos_web/page_portal_gonggao.action?_=1497234095083 HTTP/1.1" 200 637
0:0:0:0:0:0:0:1 - - [12/Jun/2017:10:21:35 +0800] "GET /bos_web/page_portal_daiban.action?_=1497234095101 HTTP/1.1" 200 887
0:0:0:0:0:0:0:1 - - [12/Jun/2017:10:21:35 +0800] "GET /bos_web/page_portal_yujing.action?_=1497234095118 HTTP/1.1" 200 614
0:0:0:0:0:0:0:1 - - [12/Jun/2017:10:21:35 +0800] "GET /bos_web/page_portal_bug.action?_=1497234095134 HTTP/1.1" 200 861
0:0:0:0:0:0:0:1 - - [12/Jun/2017:10:21:40 +0800] "POST /bos_web/userAction_login.action HTTP/1.1" 200 9690
0:0:0:0:0:0:0:1 - - [12/Jun/2017:10:21:40 +0800] "GET /bos_web/page_common_home.action HTTP/1.1" 200 2996
0:0:0:0:0:0:0:1 - - [12/Jun/2017:10:21:41 +0800] "GET /bos_web/page_common_home.action HTTP/1.1" 200 2996
0:0:0:0:0:0:0:1 - - [12/Jun/2017:10:21:41 +0800] "GET /bos_web/page_common_home.action HTTP/1.1" 200 2996
0:0:0:0:0:0:0:1 - - [12/Jun/2017:10:21:41 +0800] "GET /bos_web/page_common_home.action HTTP/1.1" 200 2996
0:0:0:0:0:0:0:1 - - [12/Jun/2017:10:21:41 +0800] "POST /bos_web/json/admin.json HTTP/1.1" 200 281
0:0:0:0:0:0:0:1 - - [12/Jun/2017:10:21:41 +0800] "POST /bos_web/functionAction_findMenu.action HTTP/1.1" 200 1859
0:0:0:0:0:0:0:1 - - [12/Jun/2017:10:21:41 +0800] "GET /bos_web/page_portal_gonggao.action?_=1497234101218 HTTP/1.1" 200 637
0:0:0:0:0:0:0:1 - - [12/Jun/2017:10:21:41 +0800] "GET /bos_web/page_portal_daiban.action?_=1497234101233 HTTP/1.1" 200 887
0:0:0:0:0:0:0:1 - - [12/Jun/2017:10:21:41 +0800] "GET /bos_web/page_portal_yujing.action?_=1497234101262 HTTP/1.1" 200 614
0:0:0:0:0:0:0:1 - - [12/Jun/2017:10:21:41 +0800] "GET /bos_web/page_portal_bug.action?_=1497234101278 HTTP/1.1" 200 861
0:0:0:0:0:0:0:1 - - [12/Jun/2017:10:21:44 +0800] "GET /bos_web/page_base_staff.action HTTP/1.1" 200 13226
0:0:0:0:0:0:0:1 - - [12/Jun/2017:10:21:45 +0800] "POST /bos_web/staffAction_pageQuery.action HTTP/1.1" 200 1155
0:0:0:0:0:0:0:1 - - [12/Jun/2017:10:23:44 +0800] "POST /bos_web/staffAction_add.action HTTP/1.1" 200 13226
0:0:0:0:0:0:0:1 - - [12/Jun/2017:10:23:44 +0800] "POST /bos_web/staffAction_pageQuery.action HTTP/1.1" 200 1330
0:0:0:0:0:0:0:1 - - [12/Jun/2017:10:27:11 +0800] "GET /bos_web/page_base_standard.action HTTP/1.1" 404 1029
0:0:0:0:0:0:0:1 - - [12/Jun/2017:10:31:37 +0800] "GET /bos_web/page_base_staff.action HTTP/1.1" 200 13226
0:0:0:0:0:0:0:1 - - [12/Jun/2017:10:31:38 +0800] "POST /bos_web/staffAction_pageQuery.action HTTP/1.1" 200 1330
0:0:0:0:0:0:0:1 - - [12/Jun/2017:10:31:38 +0800] "GET /bos_web/page_base_standard.action HTTP/1.1" 404 1029
0:0:0:0:0:0:0:1 - - [12/Jun/2017:10:31:56 +0800] "GET /bos_web/page_base_staff.action HTTP/1.1" 200 13226
0:0:0:0:0:0:0:1 - - [12/Jun/2017:10:31:56 +0800] "POST /bos_web/staffAction_pageQuery.action HTTP/1.1" 200 1330
0:0:0:0:0:0:0:1 - - [12/Jun/2017:10:39:32 +0800] "POST /bos_web/userAction_login.action HTTP/1.1" 200 9690
0:0:0:0:0:0:0:1 - - [12/Jun/2017:10:39:32 +0800] "GET /bos_web/page_common_home.action HTTP/1.1" 200 2996
0:0:0:0:0:0:0:1 - - [12/Jun/2017:10:39:33 +0800] "GET /bos_web/page_common_home.action HTTP/1.1" 200 2996
0:0:0:0:0:0:0:1 - - [12/Jun/2017:10:39:33 +0800] "GET /bos_web/page_common_home.action HTTP/1.1" 200 2996
0:0:0:0:0:0:0:1 - - [12/Jun/2017:10:39:33 +0800] "GET /bos_web/page_common_home.action HTTP/1.1" 200 2996
0:0:0:0:0:0:0:1 - - [12/Jun/2017:10:39:33 +0800] "POST /bos_web/json/admin.json HTTP/1.1" 200 281
0:0:0:0:0:0:0:1 - - [12/Jun/2017:10:39:33 +0800] "POST /bos_web/functionAction_findMenu.action HTTP/1.1" 200 1859
0:0:0:0:0:0:0:1 - - [12/Jun/2017:10:39:33 +0800] "GET /bos_web/page_portal_gonggao.action?_=1497235173287 HTTP/1.1" 200 637
0:0:0:0:0:0:0:1 - - [12/Jun/2017:10:39:33 +0800] "GET /bos_web/page_portal_daiban.action?_=1497235173309 HTTP/1.1" 200 887
0:0:0:0:0:0:0:1 - - [12/Jun/2017:10:39:33 +0800] "GET /bos_web/page_portal_yujing.action?_=1497235173327 HTTP/1.1" 200 614
0:0:0:0:0:0:0:1 - - [12/Jun/2017:10:39:33 +0800] "GET /bos_web/page_portal_bug.action?_=1497235173345 HTTP/1.1" 200 861
0:0:0:0:0:0:0:1 - - [12/Jun/2017:10:39:43 +0800] "GET /bos_web/page_qupai_diaodu.action HTTP/1.1" 200 4428
0:0:0:0:0:0:0:1 - - [12/Jun/2017:10:39:45 +0800] "POST /bos_web/staffAction_listajax.action HTTP/1.1" 200 928
0:0:0:0:0:0:0:1 - - [12/Jun/2017:10:39:45 +0800] "POST /bos_web/noticebillAction_pageQuery.action HTTP/1.1" 200 2002
0:0:0:0:0:0:0:1 - - [12/Jun/2017:10:39:48 +0800] "GET /bos_web/page_qupai_workorderimport.action HTTP/1.1" 200 4222
0:0:0:0:0:0:0:1 - - [12/Jun/2017:10:40:00 +0800] "GET /bos_web/download.action?filename=%E5%B7%A5%E4%BD%9C%E5%8D%95%E5%AF%BC%E5%85%A5%E6%A8%A1%E6%9D%BF.xls HTTP/1.1" 404 1171
0:0:0:0:0:0:0:1 - - [12/Jun/2017:10:40:07 +0800] "GET /bos_web/page_qupai_workorderimport.action HTTP/1.1" 200 4222
0:0:0:0:0:0:0:1 - - [12/Jun/2017:10:40:14 +0800] "GET /bos_web/page_qupai_quickworkorder.action HTTP/1.1" 200 4755
0:0:0:0:0:0:0:1 - - [12/Jun/2017:10:40:15 +0800] "POST /bos_web/workordermanageAction_pageQuery.action HTTP/1.1" 200 69
0:0:0:0:0:0:0:1 - - [12/Jun/2017:10:43:22 +0800] "GET /bos_web/page_base_decidedzone.action HTTP/1.1" 200 13016
0:0:0:0:0:0:0:1 - - [12/Jun/2017:10:43:25 +0800] "POST /bos_web/staffAction_listajax.action HTTP/1.1" 200 928
0:0:0:0:0:0:0:1 - - [12/Jun/2017:10:43:25 +0800] "POST /bos_web/decidedzoneAction_pageQuery.action HTTP/1.1" 200 733
0:0:0:0:0:0:0:1 - - [12/Jun/2017:10:43:25 +0800] "POST /bos_web/subareaAction_listajax.action HTTP/1.1" 200 1848
0:0:0:0:0:0:0:1 - - [12/Jun/2017:11:45:06 +0800] "GET /bos_web/page_qupai_noticebill_add.action HTTP/1.1" 302 -
0:0:0:0:0:0:0:1 - - [12/Jun/2017:11:45:06 +0800] "GET /bos_web/login.jsp HTTP/1.1" 200 3844
0:0:0:0:0:0:0:1 - - [12/Jun/2017:11:45:07 +0800] "GET /bos_web/login.jsp HTTP/1.1" 200 3844
0:0:0:0:0:0:0:1 - - [12/Jun/2017:11:45:07 +0800] "GET /bos_web/validatecode.jsp HTTP/1.1" 200 1905
0:0:0:0:0:0:0:1 - - [12/Jun/2017:11:45:07 +0800] "GET /bos_web/validatecode.jsp HTTP/1.1" 200 1880
0:0:0:0:0:0:0:1 - - [12/Jun/2017:11:45:16 +0800] "POST /bos_web/userAction_login.action HTTP/1.1" 200 9690
0:0:0:0:0:0:0:1 - - [12/Jun/2017:11:45:16 +0800] "GET /bos_web/page_common_home.action HTTP/1.1" 200 2996
0:0:0:0:0:0:0:1 - - [12/Jun/2017:11:45:16 +0800] "GET /bos_web/page_common_home.action HTTP/1.1" 200 2996
0:0:0:0:0:0:0:1 - - [12/Jun/2017:11:45:16 +0800] "GET /bos_web/page_common_home.action HTTP/1.1" 200 2996
0:0:0:0:0:0:0:1 - - [12/Jun/2017:11:45:16 +0800] "GET /bos_web/page_common_home.action HTTP/1.1" 200 2996
0:0:0:0:0:0:0:1 - - [12/Jun/2017:11:45:16 +0800] "POST /bos_web/functionAction_findMenu.action HTTP/1.1" 200 1859
0:0:0:0:0:0:0:1 - - [12/Jun/2017:11:45:16 +0800] "POST /bos_web/json/admin.json HTTP/1.1" 200 281
0:0:0:0:0:0:0:1 - - [12/Jun/2017:11:45:16 +0800] "GET /bos_web/page_portal_gonggao.action?_=1497239116425 HTTP/1.1" 200 637
0:0:0:0:0:0:0:1 - - [12/Jun/2017:11:45:16 +0800] "GET /bos_web/page_portal_daiban.action?_=1497239116437 HTTP/1.1" 200 887
0:0:0:0:0:0:0:1 - - [12/Jun/2017:11:45:16 +0800] "GET /bos_web/page_portal_yujing.action?_=1497239116452 HTTP/1.1" 200 614
0:0:0:0:0:0:0:1 - - [12/Jun/2017:11:45:16 +0800] "GET /bos_web/page_portal_bug.action?_=1497239116465 HTTP/1.1" 200 861
0:0:0:0:0:0:0:1 - - [12/Jun/2017:11:45:22 +0800] "GET /bos_web/page_base_staff.action HTTP/1.1" 200 13226
0:0:0:0:0:0:0:1 - - [12/Jun/2017:11:45:22 +0800] "POST /bos_web/staffAction_pageQuery.action HTTP/1.1" 200 1330
0:0:0:0:0:0:0:1 - - [12/Jun/2017:11:45:37 +0800] "POST /bos_web/staffAction_pageQuery.action HTTP/1.1" 200 603
0:0:0:0:0:0:0:1 - - [12/Jun/2017:11:45:39 +0800] "GET /bos_web/page_base_region.action HTTP/1.1" 200 9542
0:0:0:0:0:0:0:1 - - [12/Jun/2017:11:45:39 +0800] "POST /bos_web/regionAction_pageQuery.action HTTP/1.1" 200 5700
0:0:0:0:0:0:0:1 - - [12/Jun/2017:11:45:50 +0800] "GET /bos_web/page_base_subarea.action HTTP/1.1" 200 14751
0:0:0:0:0:0:0:1 - - [12/Jun/2017:11:45:51 +0800] "POST /bos_web/regionAction_listajax.action HTTP/1.1" 200 14477
0:0:0:0:0:0:0:1 - - [12/Jun/2017:11:45:51 +0800] "POST /bos_web/regionAction_listajax.action HTTP/1.1" 200 14477
0:0:0:0:0:0:0:1 - - [12/Jun/2017:11:45:51 +0800] "POST /bos_web/subareaAction_findGroupedSubareas.action HTTP/1.1" 200 199
0:0:0:0:0:0:0:1 - - [12/Jun/2017:11:45:51 +0800] "POST /bos_web/subareaAction_pageQuery.action HTTP/1.1" 200 4630
0:0:0:0:0:0:0:1 - - [12/Jun/2017:11:45:55 +0800] "GET /bos_web/subareaAction_exportXls.action HTTP/1.1" 200 6144
0:0:0:0:0:0:0:1 - - [12/Jun/2017:11:46:44 +0800] "GET /bos_web/page_base_decidedzone.action HTTP/1.1" 200 13016
0:0:0:0:0:0:0:1 - - [12/Jun/2017:11:46:44 +0800] "POST /bos_web/staffAction_listajax.action HTTP/1.1" 200 928
0:0:0:0:0:0:0:1 - - [12/Jun/2017:11:46:44 +0800] "POST /bos_web/decidedzoneAction_pageQuery.action HTTP/1.1" 200 733
0:0:0:0:0:0:0:1 - - [12/Jun/2017:11:46:44 +0800] "POST /bos_web/subareaAction_listajax.action HTTP/1.1" 200 1848
0:0:0:0:0:0:0:1 - - [12/Jun/2017:13:47:31 +0800] "GET /bos_web/page_base_standard.action HTTP/1.1" 302 -
0:0:0:0:0:0:0:1 - - [12/Jun/2017:13:47:31 +0800] "GET /bos_web/login.jsp HTTP/1.1" 200 3844
0:0:0:0:0:0:0:1 - - [12/Jun/2017:13:47:31 +0800] "GET /bos_web/validatecode.jsp HTTP/1.1" 200 1890
0:0:0:0:0:0:0:1 - - [12/Jun/2017:13:47:31 +0800] "GET /bos_web/login.jsp HTTP/1.1" 200 3844
0:0:0:0:0:0:0:1 - - [12/Jun/2017:13:47:31 +0800] "GET /bos_web/validatecode.jsp HTTP/1.1" 200 1918
0:0:0:0:0:0:0:1 - - [12/Jun/2017:13:47:43 +0800] "POST /bos_web/userAction_login.action HTTP/1.1" 200 3937
0:0:0:0:0:0:0:1 - - [12/Jun/2017:13:47:43 +0800] "GET /bos_web/validatecode.jsp HTTP/1.1" 200 1968
0:0:0:0:0:0:0:1 - - [12/Jun/2017:13:47:55 +0800] "POST /bos_web/userAction_login.action HTTP/1.1" 200 9690
0:0:0:0:0:0:0:1 - - [12/Jun/2017:13:47:55 +0800] "GET /bos_web/page_common_home.action HTTP/1.1" 200 2996
0:0:0:0:0:0:0:1 - - [12/Jun/2017:13:47:55 +0800] "GET /bos_web/page_common_home.action HTTP/1.1" 200 2996
0:0:0:0:0:0:0:1 - - [12/Jun/2017:13:47:55 +0800] "GET /bos_web/page_common_home.action HTTP/1.1" 200 2996
0:0:0:0:0:0:0:1 - - [12/Jun/2017:13:47:55 +0800] "GET /bos_web/page_common_home.action HTTP/1.1" 200 2996
0:0:0:0:0:0:0:1 - - [12/Jun/2017:13:47:55 +0800] "POST /bos_web/json/admin.json HTTP/1.1" 200 281
0:0:0:0:0:0:0:1 - - [12/Jun/2017:13:47:55 +0800] "POST /bos_web/functionAction_findMenu.action HTTP/1.1" 200 1859
0:0:0:0:0:0:0:1 - - [12/Jun/2017:13:47:55 +0800] "GET /bos_web/page_portal_gonggao.action?_=1497246475855 HTTP/1.1" 200 637
0:0:0:0:0:0:0:1 - - [12/Jun/2017:13:47:55 +0800] "GET /bos_web/page_portal_daiban.action?_=1497246475866 HTTP/1.1" 200 887
0:0:0:0:0:0:0:1 - - [12/Jun/2017:13:47:55 +0800] "GET /bos_web/page_portal_yujing.action?_=1497246475880 HTTP/1.1" 200 614
0:0:0:0:0:0:0:1 - - [12/Jun/2017:13:47:55 +0800] "GET /bos_web/page_portal_bug.action?_=1497246475893 HTTP/1.1" 200 861
0:0:0:0:0:0:0:1 - - [12/Jun/2017:13:47:57 +0800] "GET /bos_web/page_base_staff.action HTTP/1.1" 200 13226
0:0:0:0:0:0:0:1 - - [12/Jun/2017:13:47:58 +0800] "POST /bos_web/staffAction_pageQuery.action HTTP/1.1" 200 1330
0:0:0:0:0:0:0:1 - - [12/Jun/2017:13:48:00 +0800] "GET /bos_web/page_base_region.action HTTP/1.1" 200 9542
0:0:0:0:0:0:0:1 - - [12/Jun/2017:13:48:00 +0800] "POST /bos_web/regionAction_pageQuery.action HTTP/1.1" 200 5700
0:0:0:0:0:0:0:1 - - [12/Jun/2017:13:48:01 +0800] "GET /bos_web/page_base_decidedzone.action HTTP/1.1" 200 13016
0:0:0:0:0:0:0:1 - - [12/Jun/2017:13:48:01 +0800] "POST /bos_web/staffAction_listajax.action HTTP/1.1" 200 928
0:0:0:0:0:0:0:1 - - [12/Jun/2017:13:48:01 +0800] "POST /bos_web/subareaAction_listajax.action HTTP/1.1" 200 1848
0:0:0:0:0:0:0:1 - - [12/Jun/2017:13:48:01 +0800] "POST /bos_web/decidedzoneAction_pageQuery.action HTTP/1.1" 500 29581
0:0:0:0:0:0:0:1 - - [12/Jun/2017:13:48:02 +0800] "GET /bos_web/page_base_subarea.action HTTP/1.1" 200 14751
0:0:0:0:0:0:0:1 - - [12/Jun/2017:13:48:02 +0800] "POST /bos_web/regionAction_listajax.action HTTP/1.1" 200 14477
0:0:0:0:0:0:0:1 - - [12/Jun/2017:13:48:02 +0800] "POST /bos_web/regionAction_listajax.action HTTP/1.1" 200 14477
0:0:0:0:0:0:0:1 - - [12/Jun/2017:13:48:02 +0800] "POST /bos_web/subareaAction_findGroupedSubareas.action HTTP/1.1" 200 199
0:0:0:0:0:0:0:1 - - [12/Jun/2017:13:48:02 +0800] "POST /bos_web/subareaAction_pageQuery.action HTTP/1.1" 200 4630
0:0:0:0:0:0:0:1 - - [12/Jun/2017:13:48:03 +0800] "GET /bos_web/page_base_decidedzone.action HTTP/1.1" 200 13016
0:0:0:0:0:0:0:1 - - [12/Jun/2017:13:48:03 +0800] "POST /bos_web/staffAction_listajax.action HTTP/1.1" 200 928
0:0:0:0:0:0:0:1 - - [12/Jun/2017:13:48:03 +0800] "POST /bos_web/subareaAction_listajax.action HTTP/1.1" 200 1848
0:0:0:0:0:0:0:1 - - [12/Jun/2017:13:48:03 +0800] "POST /bos_web/decidedzoneAction_pageQuery.action HTTP/1.1" 200 733
127.0.0.1 - - [12/Jun/2017:13:48:11 +0800] "POST /crm/cxf/customer HTTP/1.1" 404 983
127.0.0.1 - - [12/Jun/2017:13:48:11 +0800] "POST /crm/cxf/customer HTTP/1.1" 404 983
0:0:0:0:0:0:0:1 - - [12/Jun/2017:13:48:11 +0800] "POST /bos_web/decidedzoneAction_findAssociationCustomers.action HTTP/1.1" 500 18422
0:0:0:0:0:0:0:1 - - [12/Jun/2017:13:48:11 +0800] "POST /bos_web/decidedzoneAction_findNoAssociationCustomers.action HTTP/1.1" 500 18424
0:0:0:0:0:0:0:1 - - [12/Jun/2017:13:48:13 +0800] "GET /bos_web/page_qupai_noticebill_add.action HTTP/1.1" 200 5218
0:0:0:0:0:0:0:1 - - [12/Jun/2017:13:48:15 +0800] "GET /bos_web/page_qupai_noticebill.action HTTP/1.1" 200 4930
0:0:0:0:0:0:0:1 - - [12/Jun/2017:13:48:15 +0800] "POST /bos_web/workbillAction_pageQuery.action HTTP/1.1" 200 3543
0:0:0:0:0:0:0:1 - - [12/Jun/2017:13:48:19 +0800] "GET /bos_web/page_qupai_quickworkorder.action HTTP/1.1" 200 4755
0:0:0:0:0:0:0:1 - - [12/Jun/2017:13:48:19 +0800] "POST /bos_web/workordermanageAction_pageQuery.action HTTP/1.1" 200 69
0:0:0:0:0:0:0:1 - - [12/Jun/2017:13:48:21 +0800] "GET /bos_web/page_qupai_workorderimport.action HTTP/1.1" 200 4222
0:0:0:0:0:0:0:1 - - [12/Jun/2017:13:48:26 +0800] "GET /bos_web/page_qupai_diaodu.action HTTP/1.1" 200 4428
0:0:0:0:0:0:0:1 - - [12/Jun/2017:13:48:26 +0800] "POST /bos_web/staffAction_listajax.action HTTP/1.1" 200 928
0:0:0:0:0:0:0:1 - - [12/Jun/2017:13:48:26 +0800] "POST /bos_web/noticebillAction_pageQuery.action HTTP/1.1" 200 2002
0:0:0:0:0:0:0:1 - - [12/Jun/2017:13:48:28 +0800] "GET /bos_web/page_qupai_diaodu.action HTTP/1.1" 200 4428
0:0:0:0:0:0:0:1 - - [12/Jun/2017:13:48:28 +0800] "POST /bos_web/staffAction_listajax.action HTTP/1.1" 200 928
0:0:0:0:0:0:0:1 - - [12/Jun/2017:13:48:28 +0800] "POST /bos_web/noticebillAction_pageQuery.action HTTP/1.1" 200 2002
0:0:0:0:0:0:0:1 - - [12/Jun/2017:13:48:38 +0800] "GET /bos_web/page_admin_userlist.action HTTP/1.1" 200 3663
0:0:0:0:0:0:0:1 - - [12/Jun/2017:13:48:38 +0800] "POST /bos_web/userAction_pageQuery.action HTTP/1.1" 200 1073
0:0:0:0:0:0:0:1 - - [12/Jun/2017:13:48:45 +0800] "POST /bos_web/userAction_pageQuery.action HTTP/1.1" 200 1073
0:0:0:0:0:0:0:1 - - [12/Jun/2017:13:48:46 +0800] "GET /bos_web/page_admin_function.action HTTP/1.1" 200 2206
0:0:0:0:0:0:0:1 - - [12/Jun/2017:13:48:46 +0800] "POST /bos_web/functionAction_pageQuery.action HTTP/1.1" 200 1515
0:0:0:0:0:0:0:1 - - [12/Jun/2017:13:48:48 +0800] "GET /bos_web/page_admin_role.action HTTP/1.1" 200 3302
0:0:0:0:0:0:0:1 - - [12/Jun/2017:13:48:48 +0800] "POST /bos_web/roleAction_pageQuery.action HTTP/1.1" 200 842
0:0:0:0:0:0:0:1 - - [12/Jun/2017:13:50:13 +0800] "GET /bos_web/roleAction_findRoleById.action?id=8a7e866c5bdbe6bb015bdbe86bf80000 HTTP/1.1" 200 4228
0:0:0:0:0:0:0:1 - - [12/Jun/2017:13:50:13 +0800] "POST /bos_web/functionAction_listajax.action HTTP/1.1" 200 1859
0:0:0:0:0:0:0:1 - - [12/Jun/2017:14:46:10 +0800] "GET /bos_web/index.jsp HTTP/1.1" 302 -
0:0:0:0:0:0:0:1 - - [12/Jun/2017:14:46:10 +0800] "GET /bos_web/login.jsp;jsessionid=EA42624021636A8FE80EC8EF51FF1BAC HTTP/1.1" 200 3844
0:0:0:0:0:0:0:1 - - [12/Jun/2017:14:46:11 +0800] "GET /bos_web/validatecode.jsp HTTP/1.1" 200 1960
0:0:0:0:0:0:0:1 - - [12/Jun/2017:14:46:11 +0800] "GET /favicon.ico HTTP/1.1" 404 973
0:0:0:0:0:0:0:1 - - [12/Jun/2017:14:46:20 +0800] "POST /bos_web/userAction_login.action HTTP/1.1" 200 3937
0:0:0:0:0:0:0:1 - - [12/Jun/2017:14:46:20 +0800] "GET /bos_web/validatecode.jsp HTTP/1.1" 200 1873
0:0:0:0:0:0:0:1 - - [12/Jun/2017:14:46:27 +0800] "POST /bos_web/userAction_login.action HTTP/1.1" 200 9690
0:0:0:0:0:0:0:1 - - [12/Jun/2017:14:46:27 +0800] "GET /bos_web/page_common_home.action HTTP/1.1" 200 2996
0:0:0:0:0:0:0:1 - - [12/Jun/2017:14:46:27 +0800] "GET /bos_web/page_common_home.action HTTP/1.1" 200 2996
0:0:0:0:0:0:0:1 - - [12/Jun/2017:14:46:27 +0800] "GET /bos_web/page_common_home.action HTTP/1.1" 200 2996
0:0:0:0:0:0:0:1 - - [12/Jun/2017:14:46:27 +0800] "GET /bos_web/page_common_home.action HTTP/1.1" 200 2996
0:0:0:0:0:0:0:1 - - [12/Jun/2017:14:46:27 +0800] "POST /bos_web/json/admin.json HTTP/1.1" 200 281
0:0:0:0:0:0:0:1 - - [12/Jun/2017:14:46:27 +0800] "POST /bos_web/functionAction_findMenu.action HTTP/1.1" 200 1859
0:0:0:0:0:0:0:1 - - [12/Jun/2017:14:46:27 +0800] "GET /bos_web/page_portal_gonggao.action?_=1497249987494 HTTP/1.1" 200 637
0:0:0:0:0:0:0:1 - - [12/Jun/2017:14:46:27 +0800] "GET /bos_web/page_portal_daiban.action?_=1497249987510 HTTP/1.1" 200 887
0:0:0:0:0:0:0:1 - - [12/Jun/2017:14:46:27 +0800] "GET /bos_web/page_portal_yujing.action?_=1497249987523 HTTP/1.1" 200 614
0:0:0:0:0:0:0:1 - - [12/Jun/2017:14:46:27 +0800] "GET /bos_web/page_portal_bug.action?_=1497249987543 HTTP/1.1" 200 861
0:0:0:0:0:0:0:1 - - [12/Jun/2017:15:07:14 +0800] "GET /bos_web/page_base_staff.action HTTP/1.1" 200 13226
0:0:0:0:0:0:0:1 - - [12/Jun/2017:15:07:15 +0800] "POST /bos_web/staffAction_pageQuery.action HTTP/1.1" 200 1330
0:0:0:0:0:0:0:1 - - [12/Jun/2017:15:07:15 +0800] "GET /bos_web/page_base_region.action HTTP/1.1" 200 9542
0:0:0:0:0:0:0:1 - - [12/Jun/2017:15:07:16 +0800] "POST /bos_web/regionAction_pageQuery.action HTTP/1.1" 200 5700
0:0:0:0:0:0:0:1 - - [12/Jun/2017:15:07:16 +0800] "GET /bos_web/page_base_subarea.action HTTP/1.1" 200 14751
0:0:0:0:0:0:0:1 - - [12/Jun/2017:15:07:17 +0800] "POST /bos_web/regionAction_listajax.action HTTP/1.1" 200 14477
0:0:0:0:0:0:0:1 - - [12/Jun/2017:15:07:17 +0800] "POST /bos_web/regionAction_listajax.action HTTP/1.1" 200 14477
0:0:0:0:0:0:0:1 - - [12/Jun/2017:15:07:17 +0800] "POST /bos_web/subareaAction_findGroupedSubareas.action HTTP/1.1" 200 199
0:0:0:0:0:0:0:1 - - [12/Jun/2017:15:07:17 +0800] "POST /bos_web/subareaAction_pageQuery.action HTTP/1.1" 200 4630
0:0:0:0:0:0:0:1 - - [12/Jun/2017:16:06:56 +0800] "GET /bos_web/page_base_region.action HTTP/1.1" 302 -
0:0:0:0:0:0:0:1 - - [12/Jun/2017:16:06:56 +0800] "GET /bos_web/login.jsp HTTP/1.1" 200 3844
0:0:0:0:0:0:0:1 - - [12/Jun/2017:16:06:56 +0800] "GET /bos_web/validatecode.jsp HTTP/1.1" 200 1914
0:0:0:0:0:0:0:1 - - [12/Jun/2017:16:06:56 +0800] "GET /bos_web/login.jsp HTTP/1.1" 200 3844
0:0:0:0:0:0:0:1 - - [12/Jun/2017:16:06:56 +0800] "GET /bos_web/validatecode.jsp HTTP/1.1" 200 1891
0:0:0:0:0:0:0:1 - - [12/Jun/2017:16:07:05 +0800] "POST /bos_web/userAction_login.action HTTP/1.1" 200 9690
0:0:0:0:0:0:0:1 - - [12/Jun/2017:16:07:05 +0800] "GET /bos_web/page_common_home.action HTTP/1.1" 200 2996
0:0:0:0:0:0:0:1 - - [12/Jun/2017:16:07:05 +0800] "GET /bos_web/page_common_home.action HTTP/1.1" 200 2996
0:0:0:0:0:0:0:1 - - [12/Jun/2017:16:07:05 +0800] "GET /bos_web/page_common_home.action HTTP/1.1" 200 2996
0:0:0:0:0:0:0:1 - - [12/Jun/2017:16:07:05 +0800] "GET /bos_web/page_common_home.action HTTP/1.1" 200 2996
0:0:0:0:0:0:0:1 - - [12/Jun/2017:16:07:05 +0800] "POST /bos_web/json/admin.json HTTP/1.1" 200 281
0:0:0:0:0:0:0:1 - - [12/Jun/2017:16:07:05 +0800] "POST /bos_web/functionAction_findMenu.action HTTP/1.1" 200 1859
0:0:0:0:0:0:0:1 - - [12/Jun/2017:16:07:05 +0800] "GET /bos_web/page_portal_gonggao.action?_=1497254825395 HTTP/1.1" 200 637
0:0:0:0:0:0:0:1 - - [12/Jun/2017:16:07:05 +0800] "GET /bos_web/page_portal_daiban.action?_=1497254825414 HTTP/1.1" 200 887
0:0:0:0:0:0:0:1 - - [12/Jun/2017:16:07:05 +0800] "GET /bos_web/page_portal_bug.action?_=1497254825437 HTTP/1.1" 200 861
0:0:0:0:0:0:0:1 - - [12/Jun/2017:16:07:05 +0800] "GET /bos_web/page_portal_yujing.action?_=1497254825425 HTTP/1.1" 200 614
0:0:0:0:0:0:0:1 - - [12/Jun/2017:16:07:09 +0800] "GET /bos_web/page_base_staff.action HTTP/1.1" 200 13226
0:0:0:0:0:0:0:1 - - [12/Jun/2017:16:07:09 +0800] "POST /bos_web/staffAction_pageQuery.action HTTP/1.1" 200 1330
0:0:0:0:0:0:0:1 - - [12/Jun/2017:16:07:13 +0800] "GET /bos_web/page_base_region.action HTTP/1.1" 200 9542
0:0:0:0:0:0:0:1 - - [12/Jun/2017:16:07:13 +0800] "POST /bos_web/regionAction_pageQuery.action HTTP/1.1" 200 5700
0:0:0:0:0:0:0:1 - - [12/Jun/2017:16:08:58 +0800] "GET /bos_web/page_base_subarea.action HTTP/1.1" 200 14751
0:0:0:0:0:0:0:1 - - [12/Jun/2017:16:08:59 +0800] "POST /bos_web/regionAction_listajax.action HTTP/1.1" 200 14477
0:0:0:0:0:0:0:1 - - [12/Jun/2017:16:08:59 +0800] "POST /bos_web/regionAction_listajax.action HTTP/1.1" 200 14477
0:0:0:0:0:0:0:1 - - [12/Jun/2017:16:08:59 +0800] "POST /bos_web/subareaAction_findGroupedSubareas.action HTTP/1.1" 200 199
0:0:0:0:0:0:0:1 - - [12/Jun/2017:16:08:59 +0800] "POST /bos_web/subareaAction_pageQuery.action HTTP/1.1" 200 4630
0:0:0:0:0:0:0:1 - - [12/Jun/2017:16:09:06 +0800] "GET /bos_web/page_base_region.action HTTP/1.1" 200 9542
0:0:0:0:0:0:0:1 - - [12/Jun/2017:16:09:06 +0800] "POST /bos_web/regionAction_pageQuery.action HTTP/1.1" 200 5700
0:0:0:0:0:0:0:1 - - [12/Jun/2017:16:09:08 +0800] "GET /bos_web/page_base_region.action HTTP/1.1" 200 9542
0:0:0:0:0:0:0:1 - - [12/Jun/2017:16:09:09 +0800] "POST /bos_web/regionAction_pageQuery.action HTTP/1.1" 200 5700
0:0:0:0:0:0:0:1 - - [12/Jun/2017:16:09:10 +0800] "GET /bos_web/page_base_subarea.action HTTP/1.1" 200 14751
0:0:0:0:0:0:0:1 - - [12/Jun/2017:16:09:10 +0800] "POST /bos_web/regionAction_listajax.action HTTP/1.1" 200 14477
0:0:0:0:0:0:0:1 - - [12/Jun/2017:16:09:10 +0800] "POST /bos_web/regionAction_listajax.action HTTP/1.1" 200 14477
0:0:0:0:0:0:0:1 - - [12/Jun/2017:16:09:10 +0800] "POST /bos_web/subareaAction_findGroupedSubareas.action HTTP/1.1" 200 199
0:0:0:0:0:0:0:1 - - [12/Jun/2017:16:09:10 +0800] "POST /bos_web/subareaAction_pageQuery.action HTTP/1.1" 200 4630
0:0:0:0:0:0:0:1 - - [12/Jun/2017:16:09:16 +0800] "GET /bos_web/subareaAction_exportXls.action HTTP/1.1" 200 6144
0:0:0:0:0:0:0:1 - - [12/Jun/2017:16:09:21 +0800] "GET /bos_web/page_base_decidedzone.action HTTP/1.1" 200 13016
0:0:0:0:0:0:0:1 - - [12/Jun/2017:16:09:21 +0800] "POST /bos_web/staffAction_listajax.action HTTP/1.1" 200 928
0:0:0:0:0:0:0:1 - - [12/Jun/2017:16:09:22 +0800] "POST /bos_web/subareaAction_listajax.action HTTP/1.1" 200 1848
0:0:0:0:0:0:0:1 - - [12/Jun/2017:16:09:22 +0800] "POST /bos_web/decidedzoneAction_pageQuery.action HTTP/1.1" 500 29581
0:0:0:0:0:0:0:1 - - [12/Jun/2017:16:09:23 +0800] "GET /bos_web/page_qupai_noticebill_add.action HTTP/1.1" 200 5218
0:0:0:0:0:0:0:1 - - [12/Jun/2017:16:09:24 +0800] "GET /bos_web/page_qupai_quickworkorder.action HTTP/1.1" 200 4755
0:0:0:0:0:0:0:1 - - [12/Jun/2017:16:09:24 +0800] "POST /bos_web/workordermanageAction_pageQuery.action HTTP/1.1" 200 69
0:0:0:0:0:0:0:1 - - [12/Jun/2017:16:09:24 +0800] "GET /bos_web/page_qupai_workorderimport.action HTTP/1.1" 200 4222
0:0:0:0:0:0:0:1 - - [12/Jun/2017:16:09:28 +0800] "GET /bos_web/page_qupai_diaodu.action HTTP/1.1" 200 4428
0:0:0:0:0:0:0:1 - - [12/Jun/2017:16:09:28 +0800] "POST /bos_web/staffAction_listajax.action HTTP/1.1" 200 928
0:0:0:0:0:0:0:1 - - [12/Jun/2017:16:09:28 +0800] "POST /bos_web/noticebillAction_pageQuery.action HTTP/1.1" 200 2002
0:0:0:0:0:0:0:1 - - [12/Jun/2017:16:09:30 +0800] "GET /bos_web/page_admin_userlist.action HTTP/1.1" 200 3663
0:0:0:0:0:0:0:1 - - [12/Jun/2017:16:09:30 +0800] "POST /bos_web/userAction_pageQuery.action HTTP/1.1" 200 1073
0:0:0:0:0:0:0:1 - - [12/Jun/2017:16:09:31 +0800] "GET /bos_web/page_admin_function.action HTTP/1.1" 200 2206
0:0:0:0:0:0:0:1 - - [12/Jun/2017:16:09:31 +0800] "POST /bos_web/functionAction_pageQuery.action HTTP/1.1" 200 1515
0:0:0:0:0:0:0:1 - - [12/Jun/2017:16:09:31 +0800] "GET /bos_web/page_admin_role.action HTTP/1.1" 200 3302
0:0:0:0:0:0:0:1 - - [12/Jun/2017:16:09:31 +0800] "POST /bos_web/roleAction_pageQuery.action HTTP/1.1" 200 842
0:0:0:0:0:0:0:1 - - [12/Jun/2017:16:09:33 +0800] "GET /bos_web/page_base_standard.action HTTP/1.1" 404 1029
0:0:0:0:0:0:0:1 - - [12/Jun/2017:16:09:34 +0800] "GET /bos_web/page_base_staff.action HTTP/1.1" 200 13226
0:0:0:0:0:0:0:1 - - [12/Jun/2017:16:09:34 +0800] "POST /bos_web/staffAction_pageQuery.action HTTP/1.1" 200 1330
0:0:0:0:0:0:0:1 - - [12/Jun/2017:16:09:44 +0800] "GET /bos_web HTTP/1.1" 302 -
0:0:0:0:0:0:0:1 - - [12/Jun/2017:16:09:44 +0800] "GET /bos_web/ HTTP/1.1" 200 9690
0:0:0:0:0:0:0:1 - - [12/Jun/2017:16:09:44 +0800] "GET /bos_web/page_common_home.action HTTP/1.1" 200 2996
0:0:0:0:0:0:0:1 - - [12/Jun/2017:16:09:44 +0800] "GET /bos_web/page_common_home.action HTTP/1.1" 200 2996
0:0:0:0:0:0:0:1 - - [12/Jun/2017:16:09:44 +0800] "GET /bos_web/page_common_home.action HTTP/1.1" 200 2996
0:0:0:0:0:0:0:1 - - [12/Jun/2017:16:09:44 +0800] "GET /bos_web/page_common_home.action HTTP/1.1" 200 2996
0:0:0:0:0:0:0:1 - - [12/Jun/2017:16:09:44 +0800] "POST /bos_web/json/admin.json HTTP/1.1" 200 281
0:0:0:0:0:0:0:1 - - [12/Jun/2017:16:09:44 +0800] "POST /bos_web/functionAction_findMenu.action HTTP/1.1" 200 1859
0:0:0:0:0:0:0:1 - - [12/Jun/2017:16:09:44 +0800] "GET /bos_web/page_portal_gonggao.action?_=1497254984686 HTTP/1.1" 200 637
0:0:0:0:0:0:0:1 - - [12/Jun/2017:16:09:44 +0800] "GET /bos_web/page_portal_daiban.action?_=1497254984699 HTTP/1.1" 200 887
0:0:0:0:0:0:0:1 - - [12/Jun/2017:16:09:44 +0800] "GET /bos_web/page_portal_yujing.action?_=1497254984712 HTTP/1.1" 200 614
0:0:0:0:0:0:0:1 - - [12/Jun/2017:16:09:44 +0800] "GET /bos_web/page_portal_bug.action?_=1497254984725 HTTP/1.1" 200 861
0:0:0:0:0:0:0:1 - - [12/Jun/2017:16:09:47 +0800] "GET /bos_web/page_base_staff.action HTTP/1.1" 200 13226
0:0:0:0:0:0:0:1 - - [12/Jun/2017:16:09:47 +0800] "POST /bos_web/staffAction_pageQuery.action HTTP/1.1" 200 1330
0:0:0:0:0:0:0:1 - - [12/Jun/2017:16:37:38 +0800] "GET /bos_web/ HTTP/1.1" 200 9690
0:0:0:0:0:0:0:1 - - [12/Jun/2017:16:37:38 +0800] "GET /bos_web/page_common_home.action HTTP/1.1" 200 2996
0:0:0:0:0:0:0:1 - - [12/Jun/2017:16:37:38 +0800] "GET /bos_web/page_common_home.action HTTP/1.1" 200 2996
0:0:0:0:0:0:0:1 - - [12/Jun/2017:16:37:39 +0800] "GET /bos_web/page_common_home.action HTTP/1.1" 200 2996
0:0:0:0:0:0:0:1 - - [12/Jun/2017:16:37:39 +0800] "GET /bos_web/page_common_home.action HTTP/1.1" 200 2996
0:0:0:0:0:0:0:1 - - [12/Jun/2017:16:37:39 +0800] "POST /bos_web/json/admin.json HTTP/1.1" 200 281
0:0:0:0:0:0:0:1 - - [12/Jun/2017:16:37:39 +0800] "POST /bos_web/functionAction_findMenu.action HTTP/1.1" 200 1859
0:0:0:0:0:0:0:1 - - [12/Jun/2017:16:37:39 +0800] "GET /bos_web/page_portal_gonggao.action?_=1497256659162 HTTP/1.1" 200 637
0:0:0:0:0:0:0:1 - - [12/Jun/2017:16:37:39 +0800] "GET /bos_web/page_portal_bug.action?_=1497256659202 HTTP/1.1" 200 861
0:0:0:0:0:0:0:1 - - [12/Jun/2017:16:37:39 +0800] "GET /bos_web/page_portal_yujing.action?_=1497256659184 HTTP/1.1" 200 614
0:0:0:0:0:0:0:1 - - [12/Jun/2017:16:37:39 +0800] "GET /bos_web/page_portal_daiban.action?_=1497256659173 HTTP/1.1" 200 887
0:0:0:0:0:0:0:1 - - [12/Jun/2017:16:37:44 +0800] "GET /bos_web/page_base_staff.action HTTP/1.1" 200 13226
0:0:0:0:0:0:0:1 - - [12/Jun/2017:16:37:44 +0800] "POST /bos_web/staffAction_pageQuery.action HTTP/1.1" 200 1330
0:0:0:0:0:0:0:1 - - [12/Jun/2017:16:38:21 +0800] "GET /bos_web/page_base_staff.action HTTP/1.1" 200 13226
0:0:0:0:0:0:0:1 - - [12/Jun/2017:16:38:21 +0800] "POST /bos_web/staffAction_pageQuery.action HTTP/1.1" 200 1330
0:0:0:0:0:0:0:1 - - [12/Jun/2017:16:38:25 +0800] "GET /bos_web/page_base_staff.action HTTP/1.1" 200 13226
0:0:0:0:0:0:0:1 - - [12/Jun/2017:16:38:25 +0800] "POST /bos_web/staffAction_pageQuery.action HTTP/1.1" 200 1330
0:0:0:0:0:0:0:1 - - [12/Jun/2017:16:38:26 +0800] "GET /bos_web/page_base_region.action HTTP/1.1" 200 9542
0:0:0:0:0:0:0:1 - - [12/Jun/2017:16:38:26 +0800] "POST /bos_web/regionAction_pageQuery.action HTTP/1.1" 200 5700
0:0:0:0:0:0:0:1 - - [12/Jun/2017:16:38:45 +0800] "GET /bos_web/page_base_staff.action HTTP/1.1" 200 13226
0:0:0:0:0:0:0:1 - - [12/Jun/2017:16:38:45 +0800] "POST /bos_web/staffAction_pageQuery.action HTTP/1.1" 200 1330
0:0:0:0:0:0:0:1 - - [12/Jun/2017:16:38:45 +0800] "GET /bos_web/page_base_region.action HTTP/1.1" 200 9542
0:0:0:0:0:0:0:1 - - [12/Jun/2017:16:38:46 +0800] "POST /bos_web/regionAction_pageQuery.action HTTP/1.1" 200 5700
0:0:0:0:0:0:0:1 - - [12/Jun/2017:16:38:47 +0800] "GET /bos_web/page_base_standard.action HTTP/1.1" 404 1029
0:0:0:0:0:0:0:1 - - [12/Jun/2017:16:38:48 +0800] "GET /bos_web/page_base_staff.action HTTP/1.1" 200 13226
0:0:0:0:0:0:0:1 - - [12/Jun/2017:16:38:48 +0800] "POST /bos_web/staffAction_pageQuery.action HTTP/1.1" 200 1330
0:0:0:0:0:0:0:1 - - [12/Jun/2017:16:39:13 +0800] "GET /bos_web/page_base_subarea.action HTTP/1.1" 200 14751
0:0:0:0:0:0:0:1 - - [12/Jun/2017:16:39:13 +0800] "POST /bos_web/regionAction_listajax.action HTTP/1.1" 200 14477
0:0:0:0:0:0:0:1 - - [12/Jun/2017:16:39:13 +0800] "POST /bos_web/regionAction_listajax.action HTTP/1.1" 200 14477
0:0:0:0:0:0:0:1 - - [12/Jun/2017:16:39:13 +0800] "POST /bos_web/subareaAction_findGroupedSubareas.action HTTP/1.1" 200 199
0:0:0:0:0:0:0:1 - - [12/Jun/2017:16:39:13 +0800] "POST /bos_web/subareaAction_pageQuery.action HTTP/1.1" 200 4630
0:0:0:0:0:0:0:1 - - [12/Jun/2017:16:39:31 +0800] "GET /bos_web/subareaAction_exportXls.action HTTP/1.1" 200 6144
0:0:0:0:0:0:0:1 - - [12/Jun/2017:16:40:09 +0800] "GET /bos_web/page_admin_userlist.action HTTP/1.1" 200 3663
0:0:0:0:0:0:0:1 - - [12/Jun/2017:16:40:09 +0800] "POST /bos_web/userAction_pageQuery.action HTTP/1.1" 200 1073
0:0:0:0:0:0:0:1 - - [12/Jun/2017:16:40:14 +0800] "GET /bos_web/page_admin_function.action HTTP/1.1" 200 2206
0:0:0:0:0:0:0:1 - - [12/Jun/2017:16:40:14 +0800] "POST /bos_web/functionAction_pageQuery.action HTTP/1.1" 200 1515
0:0:0:0:0:0:0:1 - - [12/Jun/2017:16:40:32 +0800] "GET /bos_web/page_admin_role.action HTTP/1.1" 200 3302
0:0:0:0:0:0:0:1 - - [12/Jun/2017:16:40:32 +0800] "POST /bos_web/roleAction_pageQuery.action HTTP/1.1" 200 842
0:0:0:0:0:0:0:1 - - [12/Jun/2017:16:40:36 +0800] "GET /bos_web/page_admin_role_add.action HTTP/1.1" 200 3676
0:0:0:0:0:0:0:1 - - [12/Jun/2017:16:40:36 +0800] "POST /bos_web/functionAction_listajax.action HTTP/1.1" 200 1859
0:0:0:0:0:0:0:1 - - [12/Jun/2017:16:40:57 +0800] "GET /bos_web/page_admin_function.action HTTP/1.1" 200 2206
0:0:0:0:0:0:0:1 - - [12/Jun/2017:16:40:57 +0800] "POST /bos_web/functionAction_pageQuery.action HTTP/1.1" 200 1515
0:0:0:0:0:0:0:1 - - [12/Jun/2017:16:40:58 +0800] "GET /bos_web/page_admin_userlist.action HTTP/1.1" 200 3663
0:0:0:0:0:0:0:1 - - [12/Jun/2017:16:40:58 +0800] "POST /bos_web/userAction_pageQuery.action HTTP/1.1" 200 1073
0:0:0:0:0:0:0:1 - - [12/Jun/2017:16:40:59 +0800] "GET /bos_web/page_admin_role.action HTTP/1.1" 200 3302
0:0:0:0:0:0:0:1 - - [12/Jun/2017:16:40:59 +0800] "POST /bos_web/roleAction_pageQuery.action HTTP/1.1" 200 842
0:0:0:0:0:0:0:1 - - [12/Jun/2017:16:40:59 +0800] "GET /bos_web/page_admin_userlist.action HTTP/1.1" 200 3663
0:0:0:0:0:0:0:1 - - [12/Jun/2017:16:41:00 +0800] "POST /bos_web/userAction_pageQuery.action HTTP/1.1" 200 1073
0:0:0:0:0:0:0:1 - - [12/Jun/2017:16:41:00 +0800] "GET /bos_web/page_admin_role.action HTTP/1.1" 200 3302
0:0:0:0:0:0:0:1 - - [12/Jun/2017:16:41:01 +0800] "POST /bos_web/roleAction_pageQuery.action HTTP/1.1" 200 842
0:0:0:0:0:0:0:1 - - [12/Jun/2017:16:41:01 +0800] "GET /bos_web/page_admin_userlist.action HTTP/1.1" 200 3663
0:0:0:0:0:0:0:1 - - [12/Jun/2017:16:41:01 +0800] "POST /bos_web/userAction_pageQuery.action HTTP/1.1" 200 1073
0:0:0:0:0:0:0:1 - - [12/Jun/2017:16:41:05 +0800] "GET /bos_web/page_admin_function.action HTTP/1.1" 200 2206
0:0:0:0:0:0:0:1 - - [12/Jun/2017:16:41:05 +0800] "POST /bos_web/functionAction_pageQuery.action HTTP/1.1" 200 1515
0:0:0:0:0:0:0:1 - - [12/Jun/2017:16:41:08 +0800] "GET /bos_web/page_admin_function_add.action HTTP/1.1" 200 3094
0:0:0:0:0:0:0:1 - - [12/Jun/2017:16:41:08 +0800] "POST /bos_web/functionAction_listajax.action HTTP/1.1" 200 1859
0:0:0:0:0:0:0:1 - - [12/Jun/2017:16:41:11 +0800] "GET /bos_web/page_admin_role.action HTTP/1.1" 200 3302
0:0:0:0:0:0:0:1 - - [12/Jun/2017:16:41:11 +0800] "POST /bos_web/roleAction_pageQuery.action HTTP/1.1" 200 842
0:0:0:0:0:0:0:1 - - [12/Jun/2017:16:41:23 +0800] "GET /bos_web/page_admin_role.action HTTP/1.1" 200 3302
0:0:0:0:0:0:0:1 - - [12/Jun/2017:16:41:23 +0800] "POST /bos_web/roleAction_pageQuery.action HTTP/1.1" 200 842
0:0:0:0:0:0:0:1 - - [12/Jun/2017:16:41:24 +0800] "GET /bos_web/page_admin_userlist.action HTTP/1.1" 200 3663
0:0:0:0:0:0:0:1 - - [12/Jun/2017:16:41:24 +0800] "POST /bos_web/userAction_pageQuery.action HTTP/1.1" 200 1073
0:0:0:0:0:0:0:1 - - [12/Jun/2017:16:41:27 +0800] "GET /bos_web/page_admin_role.action HTTP/1.1" 200 3302
0:0:0:0:0:0:0:1 - - [12/Jun/2017:16:41:27 +0800] "POST /bos_web/roleAction_pageQuery.action HTTP/1.1" 200 842
0:0:0:0:0:0:0:1 - - [12/Jun/2017:16:41:30 +0800] "GET /bos_web/page_admin_userlist.action HTTP/1.1" 200 3663
0:0:0:0:0:0:0:1 - - [12/Jun/2017:16:41:30 +0800] "POST /bos_web/userAction_pageQuery.action HTTP/1.1" 200 1073
0:0:0:0:0:0:0:1 - - [12/Jun/2017:16:41:31 +0800] "GET /bos_web/page_admin_function.action HTTP/1.1" 200 2206
0:0:0:0:0:0:0:1 - - [12/Jun/2017:16:41:31 +0800] "POST /bos_web/functionAction_pageQuery.action HTTP/1.1" 200 1515
0:0:0:0:0:0:0:1 - - [12/Jun/2017:16:41:36 +0800] "GET /bos_web/page_base_staff.action HTTP/1.1" 200 13226
0:0:0:0:0:0:0:1 - - [12/Jun/2017:16:41:36 +0800] "POST /bos_web/staffAction_pageQuery.action HTTP/1.1" 200 1330
0:0:0:0:0:0:0:1 - - [12/Jun/2017:16:41:38 +0800] "GET /bos_web/page_base_decidedzone.action HTTP/1.1" 200 13016
0:0:0:0:0:0:0:1 - - [12/Jun/2017:16:41:38 +0800] "POST /bos_web/staffAction_listajax.action HTTP/1.1" 200 928
0:0:0:0:0:0:0:1 - - [12/Jun/2017:16:41:38 +0800] "POST /bos_web/subareaAction_listajax.action HTTP/1.1" 200 1848
0:0:0:0:0:0:0:1 - - [12/Jun/2017:16:41:38 +0800] "POST /bos_web/decidedzoneAction_pageQuery.action HTTP/1.1" 200 733
127.0.0.1 - - [12/Jun/2017:16:41:41 +0800] "POST /crm/cxf/customer HTTP/1.1" 404 983
0:0:0:0:0:0:0:1 - - [12/Jun/2017:16:41:41 +0800] "POST /bos_web/decidedzoneAction_findAssociationCustomers.action?id=DQ1002 HTTP/1.1" 500 18422
0:0:0:0:0:0:0:1 - - [12/Jun/2017:16:41:41 +0800] "POST /bos_web/subareaAction_findSubareasByDecidedzone.action?decidedzoneId=DQ1002 HTTP/1.1" 200 2
0:0:0:0:0:0:0:1 - - [12/Jun/2017:16:41:45 +0800] "GET /bos_web/page_base_decidedzone.action HTTP/1.1" 200 13016
0:0:0:0:0:0:0:1 - - [12/Jun/2017:16:41:45 +0800] "POST /bos_web/staffAction_listajax.action HTTP/1.1" 200 928
0:0:0:0:0:0:0:1 - - [12/Jun/2017:16:41:45 +0800] "POST /bos_web/subareaAction_listajax.action HTTP/1.1" 200 1848
0:0:0:0:0:0:0:1 - - [12/Jun/2017:16:41:45 +0800] "POST /bos_web/decidedzoneAction_pageQuery.action HTTP/1.1" 200 733
0:0:0:0:0:0:0:1 - - [12/Jun/2017:16:41:46 +0800] "POST /bos_web/subareaAction_findSubareasByDecidedzone.action?decidedzoneId=DQ1002 HTTP/1.1" 200 2
127.0.0.1 - - [12/Jun/2017:16:41:46 +0800] "POST /crm/cxf/customer HTTP/1.1" 404 983
0:0:0:0:0:0:0:1 - - [12/Jun/2017:16:41:46 +0800] "POST /bos_web/decidedzoneAction_findAssociationCustomers.action?id=DQ1002 HTTP/1.1" 500 18422
0:0:0:0:0:0:0:1 - - [12/Jun/2017:16:42:12 +0800] "POST /bos_web/subareaAction_findSubareasByDecidedzone.action?decidedzoneId=DQ1003 HTTP/1.1" 200 2
127.0.0.1 - - [12/Jun/2017:16:42:12 +0800] "POST /crm/cxf/customer HTTP/1.1" 404 983
0:0:0:0:0:0:0:1 - - [12/Jun/2017:16:42:12 +0800] "POST /bos_web/decidedzoneAction_findAssociationCustomers.action?id=DQ1003 HTTP/1.1" 500 18422
0:0:0:0:0:0:0:1 - - [12/Jun/2017:16:42:13 +0800] "POST /bos_web/subareaAction_findSubareasByDecidedzone.action?decidedzoneId=dq1001 HTTP/1.1" 200 2
127.0.0.1 - - [12/Jun/2017:16:42:13 +0800] "POST /crm/cxf/customer HTTP/1.1" 404 983
0:0:0:0:0:0:0:1 - - [12/Jun/2017:16:42:13 +0800] "POST /bos_web/decidedzoneAction_findAssociationCustomers.action?id=dq1001 HTTP/1.1" 500 18422
0:0:0:0:0:0:0:1 - - [12/Jun/2017:16:42:15 +0800] "POST /bos_web/subareaAction_findSubareasByDecidedzone.action?decidedzoneId=dq1001 HTTP/1.1" 200 2
127.0.0.1 - - [12/Jun/2017:16:42:15 +0800] "POST /crm/cxf/customer HTTP/1.1" 404 983
0:0:0:0:0:0:0:1 - - [12/Jun/2017:16:42:15 +0800] "POST /bos_web/decidedzoneAction_findAssociationCustomers.action?id=dq1001 HTTP/1.1" 500 18422
0:0:0:0:0:0:0:1 - - [12/Jun/2017:16:42:21 +0800] "GET /bos_web/page_base_subarea.action HTTP/1.1" 200 14751
0:0:0:0:0:0:0:1 - - [12/Jun/2017:16:42:21 +0800] "POST /bos_web/regionAction_listajax.action HTTP/1.1" 200 14477
0:0:0:0:0:0:0:1 - - [12/Jun/2017:16:42:21 +0800] "POST /bos_web/regionAction_listajax.action HTTP/1.1" 200 14477
0:0:0:0:0:0:0:1 - - [12/Jun/2017:16:42:21 +0800] "POST /bos_web/subareaAction_findGroupedSubareas.action HTTP/1.1" 200 199
0:0:0:0:0:0:0:1 - - [12/Jun/2017:16:42:21 +0800] "POST /bos_web/subareaAction_pageQuery.action HTTP/1.1" 200 4630
0:0:0:0:0:0:0:1 - - [12/Jun/2017:16:42:23 +0800] "GET /bos_web/page_base_region.action HTTP/1.1" 200 9542
0:0:0:0:0:0:0:1 - - [12/Jun/2017:16:42:23 +0800] "POST /bos_web/regionAction_pageQuery.action HTTP/1.1" 200 5700
0:0:0:0:0:0:0:1 - - [12/Jun/2017:16:44:03 +0800] "GET /bos_web/page_base_standard.action HTTP/1.1" 404 1029
0:0:0:0:0:0:0:1 - - [12/Jun/2017:16:44:04 +0800] "GET /bos_web/page_base_staff.action HTTP/1.1" 200 13226
0:0:0:0:0:0:0:1 - - [12/Jun/2017:16:44:04 +0800] "POST /bos_web/staffAction_pageQuery.action HTTP/1.1" 200 1330
