<?xml version="1.0" encoding="UTF-8"?>
<session version="1.0">
<refactoring comment="Copy source folder &apos;config&apos; to &apos;day17_Jsp&apos;&#x0D;&#x0A;- Original project: &apos;day15&apos;&#x0D;&#x0A;- Destination element: &apos;day17_Jsp&apos;&#x0D;&#x0A;- Original element: &apos;day15/config&apos;" description="Copy source folder" destination="=day17_Jsp" element1="/config" flags="6" id="org.eclipse.jdt.ui.copy" policy="org.eclipse.jdt.ui.copyRoots" roots="1" stamp="1486867676157" version="1.0"/>
</session>